27

4 3
9
t 2 1 e
h 2 0 e
r 0 0 s
h 3 0 s
t 0 2 w
h 3 2 w
h 1 1 s
r 2 2 n
f 3 1 w
187 5

16 31
1
r 4 29 n
47 52

27 38
10
f 6 19 n
t 16 33 s
h 15 12 n
t 2 1 s
r 6 26 e
f 0 3 n
t 20 10 e
t 11 29 s
t 13 27 w
h 24 13 n
16 145

35 30
9
f 19 9 s
f 3 7 s
r 10 8 w
h 21 4 n
h 11 27 e
t 21 1 n
r 19 27 w
f 27 27 e
r 6 26 s
101 197

37 38
10
t 26 0 s
r 9 16 e
h 12 24 e
t 6 36 n
h 25 32 n
r 0 6 e
f 23 20 e
f 33 3 e
h 20 17 n
t 3 13 s
168 153

22 6
10
r 11 1 e
t 13 5 w
f 17 3 n
t 1 5 n
h 3 1 w
r 0 3 n
t 20 5 w
r 1 5 s
r 5 5 n
t 18 2 n
4 186

36 38
1
f 2 6 s
124 118

24 6
8
t 16 5 n
r 19 2 n
t 17 3 w
r 2 2 n
r 1 0 n
h 14 2 n
f 11 3 s
h 2 4 w
79 134

27 37
1
t 23 25 e
174 175

30 26
1
h 6 13 n
88 110

33 39
6
r 22 3 s
r 6 10 e
t 11 11 w
f 1 6 n
h 18 5 n
r 8 17 n
74 135

3 36
9
t 2 12 s
h 2 26 e
r 0 22 n
t 1 28 e
t 1 1 s
r 0 12 n
f 0 21 w
r 0 29 n
t 1 8 s
137 134

35 28
7
f 16 12 e
r 3 6 w
t 15 27 w
r 4 14 n
h 14 26 e
t 17 15 n
t 3 11 n
29 190

18 35
10
h 13 8 e
t 14 0 n
r 11 16 w
f 5 4 w
t 5 22 w
t 17 23 w
h 9 6 s
r 11 20 n
r 9 12 n
t 10 30 s
185 160

38 18
4
f 30 16 s
h 33 2 e
t 31 14 n
f 33 5 e
60 81

8 30
2
t 2 26 e
f 5 20 e
104 195

3 9
7
r 2 8 w
t 2 6 n
t 0 2 e
t 2 7 s
f 1 3 w
h 1 5 w
t 0 4 w
158 125

27 5
7
h 1 4 n
f 16 4 w
h 24 4 s
f 24 3 n
h 22 3 n
t 24 0 s
h 16 3 s
98 131

36 15
5
f 30 10 w
f 16 7 s
f 7 0 s
r 21 5 w
h 13 8 s
53 158

29 22
6
t 7 15 n
h 27 1 w
f 22 4 w
h 8 5 e
h 21 9 e
h 0 7 w
197 170

18 8
3
r 2 3 n
f 14 0 s
t 2 7 n
128 166

16 37
7
t 12 14 e
t 0 11 s
f 12 31 s
f 2 9 n
f 2 8 w
f 11 29 e
h 0 10 s
166 69

31 32
4
h 18 6 e
h 3 5 n
h 25 9 e
f 28 20 s
78 64

17 34
3
r 15 14 s
r 9 4 n
t 15 11 w
52 37

14 6
1
r 4 1 w
185 66

26 34
6
r 13 30 w
f 17 22 e
f 12 22 s
r 12 18 s
t 24 9 e
f 22 14 n
110 167

2 5
8
f 1 3 w
h 1 2 s
r 1 4 w
f 0 4 s
t 1 1 w
f 1 0 s
r 0 2 w
f 0 0 s
24 16
