23

21 32
11
r 4 29 n
t 15 28 n
f 2 22 s
t 16 30 n
f 19 30 s
t 1 27 n
h 1 1 s
h 16 24 n
r 14 16 n
h 5 13 n
f 1 27 w
13 1

32 32
14
r 5 16 n
t 23 25 w
h 28 11 s
t 10 9 w
r 29 6 n
h 7 17 w
t 21 8 w
t 4 12 w
f 16 26 e
f 21 22 e
t 18 14 n
t 23 28 w
h 30 21 e
h 28 28 e
5 2

23 30
14
f 14 22 s
t 3 7 n
t 3 15 w
r 11 11 w
f 21 1 n
f 6 1 n
h 14 24 s
h 1 19 e
r 1 3 s
h 19 17 s
t 6 6 n
f 2 1 w
f 2 29 n
r 21 22 w
6 2

14 19
4
h 11 16 n
r 10 7 s
t 8 9 e
f 3 10 n
12 5

18 22
11
r 0 6 n
r 9 20 s
h 3 7 e
r 6 5 e
r 8 9 n
h 9 4 w
f 17 18 w
r 8 17 e
r 3 20 e
r 10 21 s
t 14 21 e
3 3

20 29
8
h 7 14 w
f 19 2 w
h 2 27 w
h 17 11 w
f 19 13 n
r 6 2 w
h 18 15 e
h 14 8 n
13 4

6 22
3
t 2 2 n
f 1 16 w
f 0 7 e
5 1

13 24
14
t 5 13 e
t 8 17 n
h 7 18 s
r 7 3 s
r 12 15 e
r 3 3 e
r 3 13 e
t 3 22 s
h 1 6 n
f 12 20 w
h 7 10 s
r 7 0 w
h 11 21 s
f 1 23 s
3 4

35 34
13
h 11 33 s
t 7 2 w
f 29 5 s
f 9 29 n
r 12 8 e
h 19 22 w
f 7 2 s
r 24 13 w
h 20 25 s
t 9 26 n
f 28 13 w
t 22 0 s
r 4 30 n
6 1

31 29
12
h 30 10 e
r 24 28 n
h 6 15 n
f 12 21 w
f 11 8 e
f 24 26 n
f 8 11 w
r 1 11 n
h 22 0 e
h 21 7 n
f 18 24 w
t 2 7 s
12 5

19 5
11
h 12 0 s
r 6 0 w
t 7 4 n
r 2 4 w
r 5 4 e
h 16 4 n
r 11 2 e
r 11 0 s
h 4 2 s
t 0 3 s
h 1 0 s
3 4

21 35
7
t 0 2 w
f 3 11 n
r 9 29 w
h 17 4 e
t 5 25 n
r 4 24 w
r 2 0 s
9 4

35 8
13
f 33 7 s
t 24 4 n
f 25 0 s
h 3 1 n
f 30 7 n
r 31 3 s
f 31 2 e
t 22 7 w
h 1 6 e
f 34 1 w
f 15 7 e
h 33 5 e
h 9 3 w
12 1

10 31
8
t 4 18 n
f 5 3 w
t 7 20 s
f 3 30 w
f 9 2 s
r 8 0 w
t 9 1 s
f 4 7 w
7 3

15 13
5
f 10 2 e
r 10 5 e
f 10 10 n
h 14 11 n
r 11 10 w
4 4

8 31
6
h 7 25 w
h 7 17 e
f 5 2 w
h 3 5 e
r 0 2 s
h 2 18 e
5 2

32 20
4
f 7 0 s
t 8 13 w
h 0 7 n
f 10 6 n
8 3

22 12
4
h 10 3 e
t 10 3 w
r 21 10 w
t 3 3 s
3 2

10 25
5
t 1 13 e
t 0 2 s
t 8 20 w
f 4 5 s
f 5 20 w
7 5

19 20
6
t 1 19 n
r 11 14 s
r 0 15 n
f 8 7 n
t 17 18 e
r 17 4 n
4 2

14 19
4
r 10 4 n
h 7 17 s
h 8 14 e
r 9 0 n
7 2

25 5
9
h 5 0 e
t 21 4 w
r 12 4 e
h 9 0 n
h 10 1 e
r 6 1 e
t 7 3 e
r 14 3 w
h 4 0 s
7 2

10 12
7
f 5 8 w
t 2 0 s
t 6 10 n
f 2 0 w
t 1 3 w
t 5 5 n
f 0 9 n
4 3
