*** Darwin 6x4 ***
Turn = 0.
  0123
0 ..t.
1 .r..
2 ....
3 ....
4 f..r
5 .t..

Turn = 2.
  0123
0 ..t.
1 r...
2 ...r
3 ....
4 f...
5 .t..

Turn = 4.
  0123
0 r.tr
1 ....
2 ....
3 ....
4 f...
5 .t..

*** Darwin 12x9 ***
Turn = 0.
  012345678
0 .........
1 .........
2 .........
3 .........
4 .........
5 .h.......
6 .........
7 .........
8 .........
9 .........
0 .........
1 .........

Turn = 2.
  012345678
0 .........
1 .........
2 .........
3 .........
4 .........
5 .........
6 .........
7 .h.......
8 .........
9 .........
0 .........
1 .........

Turn = 4.
  012345678
0 .........
1 .........
2 .........
3 .........
4 .........
5 .........
6 .........
7 .........
8 .........
9 .h.......
0 .........
1 .........

Turn = 6.
  012345678
0 .........
1 .........
2 .........
3 .........
4 .........
5 .........
6 .........
7 .........
8 .........
9 .........
0 .........
1 .h.......

Turn = 8.
  012345678
0 .........
1 .........
2 .........
3 .........
4 .........
5 .........
6 .........
7 .........
8 .........
9 .........
0 .........
1 .h.......

Turn = 10.
  012345678
0 .........
1 .........
2 .........
3 .........
4 .........
5 .........
6 .........
7 .........
8 .........
9 .........
0 .........
1 .h.......

Turn = 12.
  012345678
0 .........
1 .........
2 .........
3 .........
4 .........
5 .........
6 .........
7 .........
8 .........
9 .........
0 .........
1 .h.......

Turn = 14.
  012345678
0 .........
1 .........
2 .........
3 .........
4 .........
5 .........
6 .........
7 .........
8 .........
9 .........
0 .........
1 .h.......

Turn = 16.
  012345678
0 .........
1 .........
2 .........
3 .........
4 .........
5 .........
6 .........
7 .........
8 .........
9 .........
0 .........
1 .h.......

Turn = 18.
  012345678
0 .........
1 .........
2 .........
3 .........
4 .........
5 .........
6 .........
7 .........
8 .........
9 .........
0 .........
1 .h.......

*** Darwin 7x8 ***
Turn = 0.
  01234567
0 ........
1 ........
2 ........
3 ........
4 ........
5 ........
6 h.r.....

Turn = 3.
  01234567
0 ........
1 ........
2 ........
3 ........
4 ........
5 ........
6 h....r..

Turn = 6.
  01234567
0 ........
1 ........
2 ........
3 ........
4 ........
5 ........
6 h......r

Turn = 9.
  01234567
0 ........
1 ........
2 ........
3 ........
4 ........
5 ........
6 h......r

Turn = 12.
  01234567
0 ........
1 ........
2 ........
3 ........
4 ........
5 ........
6 h...r...

*** Darwin 7x7 ***
Turn = 0.
  0123456
0 .h.....
1 ....t..
2 .f.....
3 h......
4 r......
5 h......
6 t......

Turn = 4.
  0123456
0 .....h.
1 ....t..
2 rf.....
3 r......
4 .......
5 t......
6 t......

Turn = 8.
  0123456
0 .r....h
1 .r..t..
2 .f.....
3 .......
4 .......
5 t......
6 t......

Turn = 12.
  0123456
0 .....rh
1 ...tt..
2 .f.....
3 .......
4 .......
5 t......
6 t......

Turn = 16.
  0123456
0 .....rr
1 ...tt..
2 .f.....
3 .......
4 .......
5 t......
6 t......

Turn = 20.
  0123456
0 ..r....
1 ...ttt.
2 .f.....
3 .......
4 .......
5 t......
6 t......

Turn = 24.
  0123456
0 r......
1 ...ttt.
2 .f.....
3 .......
4 .......
5 t......
6 t......

*** Darwin 11x11 ***
Turn = 0.
  01234567890
0 ...t.......
1 ...........
2 .....f.....
3 h..........
4 ....f......
5 ....r..f...
6 .......h.h.
7 ...........
8 h..........
9 ........h..
0 ...........

Turn = 2.
  01234567890
0 ...t.......
1 h..........
2 .....f.....
3 ...........
4 ....f......
5 .......f...
6 ..........h
7 ....r......
8 ..h....h...
9 ..........h
0 ...........

Turn = 4.
  01234567890
0 h..t.......
1 ...........
2 .....f.....
3 ...........
4 ....f......
5 .......f...
6 ..........h
7 ...........
8 ...h.......
9 ....r.....h
0 .......h...

Turn = 6.
  01234567890
0 h..t.......
1 ...........
2 .....f.....
3 ...........
4 ....f......
5 .......f...
6 ..........h
7 ...........
8 .....h.....
9 ..........h
0 ....r..h...

Turn = 8.
  01234567890
0 h..t.......
1 ...........
2 .....f.....
3 ...........
4 ....f......
5 .......f...
6 ..........h
7 ...........
8 .......h...
9 ..........h
0 ..r....h...

Turn = 10.
  01234567890
0 h..t.......
1 ...........
2 .....f.....
3 ...........
4 ....f......
5 .......f...
6 ..........h
7 ...........
8 .........h.
9 ..........h
0 r......h...

Turn = 12.
  01234567890
0 h..t.......
1 ...........
2 .....f.....
3 ...........
4 ....f......
5 .......f...
6 ..........h
7 ...........
8 ..........h
9 ..........h
0 r......h...

Turn = 14.
  01234567890
0 h..t.......
1 ...........
2 .....f.....
3 ...........
4 ....f......
5 .......f...
6 ..........h
7 ...........
8 ..........h
9 r.........h
0 .......h...

*** Darwin 8x6 ***
Turn = 0.
  012345
0 .....t
1 t.f...
2 .r....
3 ......
4 ...t.f
5 t.....
6 ...r..
7 ....h.

Turn = 3.
  012345
0 .....t
1 ttf...
2 ......
3 ......
4 ...rhf
5 t..r..
6 ......
7 ......

Turn = 6.
  012345
0 .....t
1 ttt.h.
2 ......
3 ......
4 t....f
5 rr....
6 ......
7 ......

Turn = 9.
  012345
0 ....ht
1 ttt...
2 ......
3 .r....
4 r....f
5 .r....
6 ......
7 ......

Turn = 12.
  012345
0 ....tt
1 rrt...
2 rr....
3 ......
4 .....f
5 ....r.
6 ......
7 ......

Turn = 15.
  012345
0 .r..tt
1 rrt...
2 .r....
3 ......
4 .....r
5 .....r
6 ......
7 ......

Turn = 18.
  012345
0 ...ttt
1 ..t...
2 r...r.
3 .....r
4 r.....
5 ...r..
6 ......
7 ......

Turn = 21.
  012345
0 ...ttt
1 ..t..r
2 ......
3 ......
4 .....r
5 rr....
6 ......
7 r.....

Turn = 24.
  012345
0 ...ttt
1 ..t.r.
2 .r....
3 ......
4 ......
5 ......
6 r.....
7 ..r..r

Turn = 27.
  012345
0 .r.ttt
1 ..r...
2 ..r...
3 r.....
4 ......
5 ......
6 .....r
7 ....r.

Turn = 30.
  012345
0 r..ttt
1 r.....
2 .r....
3 .....r
4 ....r.
5 ..r...
6 ......
7 ......

*** Darwin 4x6 ***
Turn = 0.
  012345
0 ...h..
1 tftft.
2 ....r.
3 r..f..

Turn = 1.
  012345
0 ....h.
1 ttttt.
2 ....t.
3 r..f..

Turn = 2.
  012345
0 .....h
1 ttttt.
2 ....t.
3 r..f..

Turn = 3.
  012345
0 .....h
1 ttttt.
2 ....t.
3 r..f..

Turn = 4.
  012345
0 .....h
1 ttttt.
2 ....t.
3 r..f..

Turn = 5.
  012345
0 .....h
1 ttttt.
2 r...t.
3 ...f..

Turn = 6.
  012345
0 .....h
1 rtttt.
2 r...t.
3 ...f..

Turn = 7.
  012345
0 r....h
1 rtttt.
2 ....t.
3 ...f..

Turn = 8.
  012345
0 r....h
1 rtttt.
2 ....t.
3 ...f..

Turn = 9.
  012345
0 .r...h
1 rrttt.
2 ....t.
3 ...f..

Turn = 10.
  012345
0 ..r..h
1 rrttt.
2 ....t.
3 ...f..

Turn = 11.
  012345
0 rr.r.h
1 ..ttt.
2 ....t.
3 ...f..

Turn = 12.
  012345
0 rr..th
1 ..ttt.
2 ....t.
3 ...f..

Turn = 13.
  012345
0 rr..tt
1 ..ttt.
2 ....t.
3 ...f..

Turn = 14.
  012345
0 ....tt
1 rrttt.
2 ....t.
3 ...f..

Turn = 15.
  012345
0 ....tt
1 ..ttt.
2 rr..t.
3 ...f..

Turn = 16.
  012345
0 ....tt
1 ..ttt.
2 ....t.
3 rr.f..

Turn = 17.
  012345
0 ....tt
1 ..ttt.
2 ....t.
3 rr.f..

Turn = 18.
  012345
0 ....tt
1 ..ttt.
2 ....t.
3 rr.f..

Turn = 19.
  012345
0 ....tt
1 ..ttt.
2 ....t.
3 rr.f..

Turn = 20.
  012345
0 ....tt
1 ..ttt.
2 ....t.
3 r.rf..

Turn = 21.
  012345
0 ....tt
1 ..ttt.
2 r...t.
3 ..rr..

Turn = 22.
  012345
0 ....tt
1 r.ttt.
2 ...rt.
3 ..r...

*** Darwin 9x4 ***
Turn = 0.
  0123
0 ....
1 ....
2 ....
3 .r..
4 t...
5 ....
6 t.t.
7 ...h
8 ....

Turn = 5.
  0123
0 ..r.
1 ....
2 ....
3 ....
4 t...
5 ....
6 t.t.
7 h...
8 ....

Turn = 10.
  0123
0 ....
1 ...r
2 ....
3 ....
4 t...
5 ....
6 t.t.
7 t...
8 ....

Turn = 15.
  0123
0 ....
1 ....
2 ....
3 ....
4 t...
5 ....
6 t.tr
7 t...
8 ....

Turn = 20.
  0123
0 ....
1 ....
2 ....
3 ....
4 t...
5 ....
6 t.t.
7 t...
8 .r..

*** Darwin 8x9 ***
Turn = 0.
  012345678
0 .........
1 .........
2 .........
3 .........
4 .........
5 .t.......
6 .........
7 .........

Turn = 1.
  012345678
0 .........
1 .........
2 .........
3 .........
4 .........
5 .t.......
6 .........
7 .........

Turn = 2.
  012345678
0 .........
1 .........
2 .........
3 .........
4 .........
5 .t.......
6 .........
7 .........

Turn = 3.
  012345678
0 .........
1 .........
2 .........
3 .........
4 .........
5 .t.......
6 .........
7 .........

Turn = 4.
  012345678
0 .........
1 .........
2 .........
3 .........
4 .........
5 .t.......
6 .........
7 .........

Turn = 5.
  012345678
0 .........
1 .........
2 .........
3 .........
4 .........
5 .t.......
6 .........
7 .........

Turn = 6.
  012345678
0 .........
1 .........
2 .........
3 .........
4 .........
5 .t.......
6 .........
7 .........

Turn = 7.
  012345678
0 .........
1 .........
2 .........
3 .........
4 .........
5 .t.......
6 .........
7 .........

Turn = 8.
  012345678
0 .........
1 .........
2 .........
3 .........
4 .........
5 .t.......
6 .........
7 .........

Turn = 9.
  012345678
0 .........
1 .........
2 .........
3 .........
4 .........
5 .t.......
6 .........
7 .........

Turn = 10.
  012345678
0 .........
1 .........
2 .........
3 .........
4 .........
5 .t.......
6 .........
7 .........

Turn = 11.
  012345678
0 .........
1 .........
2 .........
3 .........
4 .........
5 .t.......
6 .........
7 .........

Turn = 12.
  012345678
0 .........
1 .........
2 .........
3 .........
4 .........
5 .t.......
6 .........
7 .........

Turn = 13.
  012345678
0 .........
1 .........
2 .........
3 .........
4 .........
5 .t.......
6 .........
7 .........

Turn = 14.
  012345678
0 .........
1 .........
2 .........
3 .........
4 .........
5 .t.......
6 .........
7 .........

*** Darwin 7x12 ***
Turn = 0.
  012345678901
0 ............
1 ............
2 ............
3 ............
4 ............
5 ............
6 .........r..

Turn = 2.
  012345678901
0 ............
1 ............
2 ............
3 ............
4 ............
5 ............
6 ...........r

Turn = 4.
  012345678901
0 ............
1 ............
2 ............
3 ............
4 ............
5 ............
6 ...........r

Turn = 6.
  012345678901
0 ............
1 ............
2 ............
3 ............
4 ............
5 ............
6 ...........r

Turn = 8.
  012345678901
0 ............
1 ............
2 ............
3 ............
4 ............
5 ............
6 .........r..

Turn = 10.
  012345678901
0 ............
1 ............
2 ............
3 ............
4 ............
5 ............
6 .......r....

Turn = 12.
  012345678901
0 ............
1 ............
2 ............
3 ............
4 ............
5 ............
6 .....r......

Turn = 14.
  012345678901
0 ............
1 ............
2 ............
3 ............
4 ............
5 ............
6 ...r........

*** Darwin 8x7 ***
Turn = 0.
  0123456
0 ......f
1 .......
2 h......
3 .....t.
4 .t..f.t
5 .......
6 .......
7 .......

Turn = 1.
  0123456
0 ......f
1 h......
2 .......
3 .....t.
4 .t..f.t
5 .......
6 .......
7 .......

Turn = 2.
  0123456
0 h.....f
1 .......
2 .......
3 .....t.
4 .t..f.t
5 .......
6 .......
7 .......

Turn = 3.
  0123456
0 h.....f
1 .......
2 .......
3 .....t.
4 .t..f.t
5 .......
6 .......
7 .......

Turn = 4.
  0123456
0 h.....f
1 .......
2 .......
3 .....t.
4 .t..f.t
5 .......
6 .......
7 .......

*** Darwin 9x6 ***
Turn = 0.
  012345
0 ..f...
1 ......
2 .f.t..
3 .r....
4 .t...t
5 ......
6 ..h...
7 ..t...
8 ......

Turn = 3.
  012345
0 ..f...
1 ......
2 .f.t..
3 ....r.
4 .t...t
5 ......
6 ..t...
7 ..t...
8 ......

Turn = 6.
  012345
0 ..f...
1 ......
2 .f.t..
3 .....r
4 .t...r
5 ......
6 ..t...
7 ..t...
8 ......

Turn = 9.
  012345
0 ..f...
1 ......
2 .f.t..
3 ...r..
4 .tr...
5 ......
6 ..t...
7 ..t...
8 ......

*** Darwin 6x6 ***
Turn = 0.
  012345
0 ......
1 ......
2 ...r..
3 ...h..
4 ......
5 ......

Turn = 5.
  012345
0 ......
1 ......
2 ......
3 h.....
4 .....r
5 ......

Turn = 10.
  012345
0 ......
1 ......
2 ......
3 h.....
4 ......
5 ....r.

Turn = 15.
  012345
0 ......
1 ......
2 ......
3 h.....
4 ......
5 r.....

Turn = 20.
  012345
0 ......
1 r.....
2 ......
3 ......
4 ......
5 r.....

Turn = 25.
  012345
0 ...r..
1 ......
2 ......
3 ......
4 ......
5 r.....

*** Darwin 5x10 ***
Turn = 0.
  0123456789
0 ..........
1 .h........
2 .h.....h..
3 ...r...rr.
4 .r........

Turn = 3.
  0123456789
0 .h.r......
1 .r........
2 ...h..r...
3 ......r...
4 .........r

Turn = 6.
  0123456789
0 ..r..r....
1 r.........
2 ....rr....
3 ...r......
4 .......r..

Turn = 9.
  0123456789
0 r...rr..r.
1 ...r......
2 ..........
3 r.........
4 ....r.....

Turn = 12.
  0123456789
0 ...r..r.rr
1 r.........
2 ..........
3 ..........
4 rr........

Turn = 15.
  0123456789
0 ......rrrr
1 ..........
2 .r........
3 r.........
4 r.........

Turn = 18.
  0123456789
0 .r....rr..
1 ........rr
2 r.........
3 ..........
4 ..r.......

*** Darwin 7x13 ***
Turn = 0.
  0123456789012
0 .............
1 .............
2 .............
3 ..r..........
4 ..t..........
5 ...h.........
6 .............

Turn = 1.
  0123456789012
0 .............
1 .............
2 .............
3 ..r..........
4 ...r.........
5 .............
6 ...h.........

Turn = 2.
  0123456789012
0 .............
1 .............
2 .............
3 .............
4 ..r.r........
5 .............
6 ...h.........

Turn = 3.
  0123456789012
0 .............
1 .............
2 .............
3 .............
4 .....r.......
5 ..r..........
6 ...h.........

Turn = 4.
  0123456789012
0 .............
1 .............
2 .............
3 .............
4 ......r......
5 .............
6 ..rh.........

*** Darwin 7x8 ***
Turn = 0.
  01234567
0 .......f
1 ........
2 ..h.....
3 ........
4 ...t....
5 ....fr..
6 ...f....

Turn = 5.
  01234567
0 ..h....f
1 ........
2 ........
3 ........
4 ...t....
5 ....f...
6 ...f...r

*** Darwin 7x4 ***
Turn = 0.
  0123
0 ....
1 .r.t
2 ....
3 t...
4 .h..
5 tt..
6 tt..

Turn = 3.
  0123
0 ..r.
1 ...t
2 ....
3 t...
4 ...h
5 tt..
6 tt..

Turn = 6.
  0123
0 ...r
1 ...t
2 ....
3 t...
4 ...h
5 tt..
6 tt..

Turn = 9.
  0123
0 ...t
1 ...t
2 ....
3 t...
4 ...h
5 tt..
6 tt..

*** Darwin 8x9 ***
Turn = 0.
  012345678
0 .......r.
1 .....r...
2 .....t..t
3 .h...f...
4 ....f....
5 .....r...
6 .........
7 .....t...

Turn = 4.
  012345678
0 .........
1 .r......r
2 .....t...
3 h....t..r
4 ....f....
5 ........r
6 .........
7 .....t...

Turn = 8.
  012345678
0 r........
1 .........
2 .....t...
3 h....t..r
4 ....f.r..
5 .........
6 .........
7 .....t..r

Turn = 12.
  012345678
0 ..r......
1 .........
2 .....t...
3 h....t...
4 .....t...
5 ....r....
6 ........r
7 .....t.r.

Turn = 16.
  012345678
0 ......r..
1 .........
2 .....t...
3 h....t..r
4 .....t...
5 .........
6 .........
7 ....rrr..

Turn = 20.
  012345678
0 ........r
1 ........r
2 .....t...
3 h...rr...
4 .....r...
5 .....r...
6 ........r
7 .........

*** Darwin 5x4 ***
Turn = 0.
  0123
0 ....
1 ....
2 ....
3 ..h.
4 ....

Turn = 1.
  0123
0 ....
1 ....
2 ....
3 ....
4 ..h.

Turn = 2.
  0123
0 ....
1 ....
2 ....
3 ....
4 ..h.

Turn = 3.
  0123
0 ....
1 ....
2 ....
3 ....
4 ..h.

Turn = 4.
  0123
0 ....
1 ....
2 ....
3 ....
4 ..h.

Turn = 5.
  0123
0 ....
1 ....
2 ....
3 ....
4 ..h.

Turn = 6.
  0123
0 ....
1 ....
2 ....
3 ....
4 ..h.

Turn = 7.
  0123
0 ....
1 ....
2 ....
3 ....
4 ..h.

Turn = 8.
  0123
0 ....
1 ....
2 ....
3 ....
4 ..h.

Turn = 9.
  0123
0 ....
1 ....
2 ....
3 ....
4 ..h.

Turn = 10.
  0123
0 ....
1 ....
2 ....
3 ....
4 ..h.

Turn = 11.
  0123
0 ....
1 ....
2 ....
3 ....
4 ..h.

Turn = 12.
  0123
0 ....
1 ....
2 ....
3 ....
4 ..h.

Turn = 13.
  0123
0 ....
1 ....
2 ....
3 ....
4 ..h.

Turn = 14.
  0123
0 ....
1 ....
2 ....
3 ....
4 ..h.

Turn = 15.
  0123
0 ....
1 ....
2 ....
3 ....
4 ..h.

Turn = 16.
  0123
0 ....
1 ....
2 ....
3 ....
4 ..h.

Turn = 17.
  0123
0 ....
1 ....
2 ....
3 ....
4 ..h.

Turn = 18.
  0123
0 ....
1 ....
2 ....
3 ....
4 ..h.

Turn = 19.
  0123
0 ....
1 ....
2 ....
3 ....
4 ..h.

Turn = 20.
  0123
0 ....
1 ....
2 ....
3 ....
4 ..h.

Turn = 21.
  0123
0 ....
1 ....
2 ....
3 ....
4 ..h.

Turn = 22.
  0123
0 ....
1 ....
2 ....
3 ....
4 ..h.

Turn = 23.
  0123
0 ....
1 ....
2 ....
3 ....
4 ..h.

Turn = 24.
  0123
0 ....
1 ....
2 ....
3 ....
4 ..h.

Turn = 25.
  0123
0 ....
1 ....
2 ....
3 ....
4 ..h.

Turn = 26.
  0123
0 ....
1 ....
2 ....
3 ....
4 ..h.

Turn = 27.
  0123
0 ....
1 ....
2 ....
3 ....
4 ..h.

Turn = 28.
  0123
0 ....
1 ....
2 ....
3 ....
4 ..h.

Turn = 29.
  0123
0 ....
1 ....
2 ....
3 ....
4 ..h.

Turn = 30.
  0123
0 ....
1 ....
2 ....
3 ....
4 ..h.

*** Darwin 7x11 ***
Turn = 0.
  01234567890
0 .........r.
1 ..........r
2 ...........
3 ........h..
4 ...........
5 ...........
6 ..f........

Turn = 5.
  01234567890
0 .........r.
1 ...........
2 ..........r
3 ..........r
4 ...........
5 ...........
6 ..f........

Turn = 10.
  01234567890
0 ....r......
1 ...........
2 ........r..
3 ........r..
4 ...........
5 ...........
6 ..f........

*** Darwin 7x10 ***
Turn = 0.
  0123456789
0 ..........
1 ........t.
2 .......t..
3 ..........
4 ..........
5 ......h...
6 ..........

Turn = 1.
  0123456789
0 ..........
1 ........t.
2 .......t..
3 ..........
4 ..........
5 .......h..
6 ..........

Turn = 2.
  0123456789
0 ..........
1 ........t.
2 .......t..
3 ..........
4 ..........
5 ........h.
6 ..........

Turn = 3.
  0123456789
0 ..........
1 ........t.
2 .......t..
3 ..........
4 ..........
5 .........h
6 ..........

Turn = 4.
  0123456789
0 ..........
1 ........t.
2 .......t..
3 ..........
4 ..........
5 .........h
6 ..........

Turn = 5.
  0123456789
0 ..........
1 ........t.
2 .......t..
3 ..........
4 ..........
5 .........h
6 ..........

*** Darwin 5x12 ***
Turn = 0.
  012345678901
0 ............
1 .........f..
2 t...........
3 r.........rt
4 ............

Turn = 5.
  012345678901
0 ............
1 .........f.r
2 t...........
3 .....r......
4 ........r...

Turn = 10.
  012345678901
0 ............
1 .........f..
2 t..........r
3 ..........r.
4 ...r........

Turn = 15.
  012345678901
0 ............
1 .........f..
2 t...........
3 ............
4 r.......r..r

Turn = 20.
  012345678901
0 ...........r
1 .........f..
2 r...........
3 .r..........
4 ...r........

Turn = 25.
  012345678901
0 .......r....
1 .........f..
2 ............
3 r.....r.....
4 r...........

*** Darwin 12x10 ***
Turn = 0.
  0123456789
0 .t........
1 ....t.....
2 ...h....r.
3 .t........
4 ..........
5 ..........
6 .........f
7 ..........
8 ..........
9 ..........
0 ..........
1 ..........

Turn = 5.
  0123456789
0 .t.h......
1 ....t.....
2 ..........
3 .t........
4 ..........
5 ..........
6 .........f
7 ........r.
8 ..........
9 ..........
0 ..........
1 ..........

Turn = 10.
  0123456789
0 .t.h......
1 ....t.....
2 ..........
3 .t........
4 ..........
5 ..........
6 .........f
7 ..........
8 ..........
9 ..........
0 ..........
1 ........r.

Turn = 15.
  0123456789
0 .t.h......
1 ....t.....
2 ..........
3 .t........
4 ..........
5 ..........
6 .........f
7 ..........
8 ..........
9 ..........
0 ..........
1 ...r......

Turn = 20.
  0123456789
0 .t.h......
1 ....t.....
2 ..........
3 .t........
4 ..........
5 ..........
6 .........f
7 ..........
8 ..........
9 ..........
0 ..........
1 r.........

Turn = 25.
  0123456789
0 .t.h......
1 ....t.....
2 ..........
3 .t........
4 ..........
5 ..........
6 .........f
7 r.........
8 ..........
9 ..........
0 ..........
1 ..........

*** Darwin 4x8 ***
Turn = 0.
  01234567
0 ........
1 r......f
2 .h...f..
3 t.......

Turn = 4.
  01234567
0 ..r.....
1 .......f
2 ....hf..
3 t.......

Turn = 8.
  01234567
0 ......r.
1 .......f
2 ....hf..
3 t.......

Turn = 12.
  01234567
0 .......r
1 .......f
2 ....hf..
3 t.......

Turn = 16.
  01234567
0 .....r..
1 ........
2 ....hf..
3 t......r

Turn = 20.
  01234567
0 .r.....r
1 ........
2 ....hf..
3 t.......

Turn = 24.
  01234567
0 .r....r.
1 ........
2 ....hf..
3 t.......

*** Darwin 8x6 ***
Turn = 0.
  012345
0 ...r..
1 ......
2 ......
3 ......
4 ..h...
5 .f...t
6 ......
7 t..t..

Turn = 4.
  012345
0 .....r
1 ......
2 ......
3 ......
4 h.....
5 .f...t
6 ......
7 t..t..

Turn = 8.
  012345
0 ......
1 ......
2 .....r
3 ......
4 h.....
5 .f...t
6 ......
7 t..t..

Turn = 12.
  012345
0 ......
1 ......
2 ......
3 ......
4 h....t
5 .f...t
6 ......
7 t..t..

Turn = 16.
  012345
0 ......
1 ......
2 ......
3 ......
4 h....t
5 .f...t
6 ......
7 t..t..

Turn = 20.
  012345
0 ......
1 ......
2 ......
3 ......
4 h....t
5 .f...t
6 ......
7 t..t..

Turn = 24.
  012345
0 ......
1 ......
2 ......
3 ......
4 h....t
5 .f...t
6 ......
7 t..t..

Turn = 28.
  012345
0 ......
1 ......
2 ......
3 ......
4 h....t
5 .f...t
6 ......
7 t..t..

*** Darwin 4x9 ***
Turn = 0.
  012345678
0 .........
1 .........
2 .h.......
3 ......h..

Turn = 1.
  012345678
0 .........
1 .h.......
2 .........
3 ......h..

*** Darwin 12x5 ***
Turn = 0.
  01234
0 ..h..
1 .r...
2 ...r.
3 .....
4 ..f..
5 .f...
6 .....
7 .....
8 .t...
9 tt...
0 .....
1 .....

Turn = 5.
  01234
0 ...rh
1 ..r..
2 .....
3 .....
4 ..f..
5 .f...
6 .....
7 .....
8 .t...
9 tt...
0 .....
1 .....

Turn = 10.
  01234
0 .r...
1 .....
2 .....
3 .....
4 r...r
5 .fr..
6 .....
7 .....
8 .t...
9 tt...
0 .....
1 .....

*** Darwin 6x13 ***
Turn = 0.
  0123456789012
0 ....f.......h
1 .h...........
2 ..ff.......f.
3 .r.........t.
4 .............
5 ....fr.......

Turn = 2.
  0123456789012
0 ....f.......h
1 h............
2 ..ff.......t.
3 ...r.......t.
4 .............
5 ....rr.......

Turn = 4.
  0123456789012
0 ....f.......h
1 h............
2 ..ff.......t.
3 .....r.....t.
4 .....r.......
5 ....r........

Turn = 6.
  0123456789012
0 ....f.......h
1 h............
2 ..ff.r.....t.
3 .......r...t.
4 .............
5 ...r.........

Turn = 8.
  0123456789012
0 ....fr......h
1 h............
2 ..ff.......t.
3 .........r.t.
4 .............
5 .r...........

Turn = 10.
  0123456789012
0 ....f.r.....h
1 h............
2 ..ff.......t.
3 ..........r.r
4 .............
5 r............

Turn = 12.
  0123456789012
0 ....f...r...h
1 h............
2 ..ff.......tr
3 ...........r.
4 .............
5 r............

Turn = 14.
  0123456789012
0 ....f.....r.r
1 h...........r
2 ..ff.......t.
3 ...........t.
4 .............
5 r............

Turn = 16.
  0123456789012
0 ....f......rr
1 h...........r
2 ..ff.......t.
3 ...........t.
4 .............
5 .r...........
