*** Darwin 10x7 ***
Turn = 0.
  0123456
0 f.fh...
1 .......
2 .....t.
3 ...f.r.
4 ...r...
5 .......
6 ..f...f
7 .......
8 r......
9 .......

Turn = 13.
  0123456
0 .rr..rr
1 r......
2 .......
3 r..f...
4 .......
5 r......
6 ..f...r
7 .......
8 .......
9 .......

*** Darwin 10x7 ***
Turn = 0.
  0123456
0 .......
1 ....f..
2 t..rf..
3 ......r
4 .......
5 .......
6 .....h.
7 ..tt...
8 .......
9 .......

*** Darwin 8x5 ***
Turn = 0.
  01234
0 .....
1 ..h..
2 .....
3 ...h.
4 ....f
5 r....
6 .....
7 .....

Turn = 7.
  01234
0 ..h..
1 .....
2 .....
3 ....h
4 ....f
5 .....
6 r....
7 .....

*** Darwin 10x8 ***
Turn = 0.
  01234567
0 ........
1 ........
2 .......f
3 ........
4 ........
5 ..f.....
6 ....r...
7 ..f.....
8 ........
9 ......r.

*** Darwin 8x8 ***
Turn = 0.
  01234567
0 ........
1 .r......
2 .f......
3 f...r.f.
4 ........
5 h.....h.
6 .......h
7 ........

Turn = 5.
  01234567
0 r....r..
1 ........
2 .f......
3 f.....f.
4 ........
5 h......h
6 ..h.....
7 ........

Turn = 10.
  01234567
0 ....r...
1 ........
2 .f.....r
3 f.....f.
4 ........
5 h......h
6 h.......
7 ........

Turn = 15.
  01234567
0 .......r
1 ........
2 .f......
3 f.....f.
4 ......r.
5 h......r
6 h.......
7 ........

*** Darwin 6x7 ***
Turn = 0.
  0123456
0 .....h.
1 ......f
2 .f.....
3 .......
4 .....f.
5 .....h.

Turn = 6.
  0123456
0 ......h
1 ......f
2 .f.....
3 .......
4 .....f.
5 .....h.

Turn = 12.
  0123456
0 ......h
1 ......f
2 .f.....
3 .......
4 .....f.
5 .....h.

*** Darwin 9x9 ***
Turn = 0.
  012345678
0 ........f
1 ....tft..
2 .........
3 .........
4 ........t
5 .........
6 .........
7 .....h...
8 .fr......

*** Darwin 6x8 ***
Turn = 0.
  01234567
0 ..f....h
1 t.fr.f..
2 ....h...
3 ...t....
4 h.......
5 .......r

*** Darwin 6x6 ***
Turn = 0.
  012345
0 .fh.rh
1 .....f
2 h.....
3 ......
4 ..ft..
5 ......

*** Darwin 7x6 ***
Turn = 0.
  012345
0 ......
1 .....t
2 ......
3 ......
4 ......
5 ......
6 .....h

Turn = 3.
  012345
0 ......
1 .....t
2 ......
3 ......
4 ......
5 ......
6 .....h

Turn = 6.
  012345
0 ......
1 .....t
2 ......
3 ......
4 ......
5 ......
6 .....h

Turn = 9.
  012345
0 ......
1 .....t
2 ......
3 ......
4 ......
5 ......
6 .....h

Turn = 12.
  012345
0 ......
1 .....t
2 ......
3 ......
4 ......
5 ......
6 .....h

Turn = 15.
  012345
0 ......
1 .....t
2 ......
3 ......
4 ......
5 ......
6 .....h

Turn = 18.
  012345
0 ......
1 .....t
2 ......
3 ......
4 ......
5 ......
6 .....h

*** Darwin 5x7 ***
Turn = 0.
  0123456
0 .......
1 .......
2 t.....f
3 ......h
4 .h.....

*** Darwin 8x7 ***
Turn = 0.
  0123456
0 ..r....
1 ..h....
2 .....f.
3 .t.h...
4 .......
5 ......r
6 .......
7 .f.....

*** Darwin 8x5 ***
Turn = 0.
  01234
0 r....
1 .....
2 ....t
3 .....
4 .....
5 .....
6 .....
7 h....

Turn = 2.
  01234
0 .r...
1 .....
2 ....t
3 .....
4 .....
5 .....
6 .....
7 h....

Turn = 4.
  01234
0 ...r.
1 .....
2 ....t
3 .....
4 .....
5 .....
6 .....
7 h....

Turn = 6.
  01234
0 ....r
1 .....
2 ....t
3 .....
4 .....
5 .....
6 .....
7 h....

Turn = 8.
  01234
0 ....r
1 .....
2 ....t
3 .....
4 .....
5 .....
6 .....
7 h....

Turn = 10.
  01234
0 .....
1 ....r
2 ....r
3 .....
4 .....
5 .....
6 .....
7 h....

*** Darwin 5x7 ***
Turn = 0.
  0123456
0 .......
1 .......
2 .......
3 ....r..
4 .......

Turn = 3.
  0123456
0 ....r..
1 .......
2 .......
3 .......
4 .......

Turn = 6.
  0123456
0 ......r
1 .......
2 .......
3 .......
4 .......

*** Darwin 10x7 ***
Turn = 0.
  0123456
0 ....r..
1 .......
2 ......t
3 .......
4 .......
5 .......
6 f......
7 ....f..
8 .....r.
9 .......

Turn = 20.
  0123456
0 r......
1 ....r..
2 .......
3 .....r.
4 ....r..
5 .......
6 .......
7 ....f..
8 .......
9 .......

*** Darwin 10x7 ***
Turn = 0.
  0123456
0 .......
1 h......
2 ...rr..
3 .......
4 ...r.h.
5 ......r
6 r......
7 ....h.f
8 .....h.
9 .......

*** Darwin 9x8 ***
Turn = 0.
  01234567
0 ........
1 ........
2 ........
3 ......r.
4 ........
5 ........
6 ........
7 ......r.
8 ........

*** Darwin 5x7 ***
Turn = 0.
  0123456
0 r......
1 .......
2 ......h
3 .......
4 .h.r..f

*** Darwin 5x7 ***
Turn = 0.
  0123456
0 .......
1 .......
2 .......
3 .....h.
4 ..r....

Turn = 4.
  0123456
0 ..r..h.
1 .......
2 .......
3 .......
4 .......

Turn = 8.
  0123456
0 ....rr.
1 .......
2 .......
3 .......
4 .......

Turn = 12.
  0123456
0 ......r
1 .......
2 .......
3 ....r..
4 .......

*** Darwin 10x7 ***
Turn = 0.
  0123456
0 .f.....
1 .......
2 .......
3 .......
4 .......
5 .......
6 .......
7 .......
8 ...r...
9 .......

*** Darwin 9x9 ***
Turn = 0.
  012345678
0 ....h....
1 .....f...
2 .........
3 .........
4 ...f.....
5 ...f.....
6 ......r..
7 .t.......
8 .r.h.....

Turn = 12.
  012345678
0 ........h
1 .....f...
2 .........
3 .........
4 .........
5 r.......r
6 .........
7 .t......r
8 .tt......

*** Darwin 8x6 ***
Turn = 0.
  012345
0 .....h
1 ......
2 ....h.
3 ....hr
4 ......
5 ...r..
6 ......
7 ......

*** Darwin 8x10 ***
Turn = 0.
  0123456789
0 ..........
1 ..........
2 ..........
3 ..........
4 ..........
5 .....f....
6 ..........
7 ..........

*** Darwin 6x6 ***
Turn = 0.
  012345
0 ...h..
1 ......
2 ......
3 ......
4 ......
5 ......

Turn = 15.
  012345
0 ......
1 ......
2 ......
3 ......
4 ......
5 ...h..

*** Darwin 9x5 ***
Turn = 0.
  01234
0 .....
1 .....
2 .....
3 .f...
4 .....
5 .....
6 .....
7 .....
8 .....
