23

20 6
13
f 18 1 e
h 10 0 s
r 10 2 w
t 5 1 n
t 14 5 e
h 12 2 e
h 10 0 s
t 2 5 w
h 16 2 e
r 13 5 s
h 14 2 n
t 16 3 s
t 12 2 s
347 31

8 50
11
t 6 44 e
r 2 32 e
t 4 14 w
h 2 14 s
r 1 32 w
h 2 3 n
t 7 43 e
f 5 0 n
t 4 26 s
t 5 39 e
f 2 20 s
179 44

50 41
11
f 5 28 s
f 7 19 w
r 26 23 e
f 19 30 w
r 13 20 s
h 15 19 n
r 1 16 s
h 17 16 w
r 49 4 e
r 44 40 n
f 40 2 n
265 64

18 5
11
h 3 1 e
t 4 1 w
f 11 0 e
f 8 4 w
r 17 1 e
t 17 3 s
f 13 0 n
r 17 1 s
t 0 0 w
r 6 1 w
f 6 3 w
168 20

30 8
8
r 22 3 e
r 3 6 s
r 5 7 n
r 16 3 n
h 13 2 n
r 22 2 s
t 9 2 e
h 24 5 w
298 94

9 15
10
f 4 8 n
t 2 5 e
h 2 8 e
r 3 3 e
f 3 12 s
r 7 12 s
r 3 4 n
f 4 5 s
h 1 4 e
f 4 11 n
29 28

11 34
5
r 1 0 e
f 1 20 s
f 9 0 n
t 2 25 n
h 1 15 w
392 22

16 5
13
t 0 1 w
f 4 2 n
f 0 4 s
f 4 2 e
t 3 2 n
r 0 0 e
h 9 4 s
r 5 3 w
t 3 4 s
h 8 1 s
t 15 0 n
t 5 2 w
r 9 2 w
43 71

34 4
11
f 20 1 s
h 26 2 w
t 12 2 w
t 7 3 w
h 10 0 n
t 11 2 e
h 22 3 n
f 4 2 s
h 31 0 s
f 22 3 e
h 12 1 s
174 51

44 14
13
t 13 5 s
r 3 12 w
t 29 0 n
h 41 12 n
t 39 8 n
f 5 12 w
h 32 2 e
r 39 12 e
f 14 12 w
h 43 4 w
r 40 1 w
h 12 1 n
h 10 12 e
192 34

36 22
9
f 11 10 s
t 29 17 n
r 25 17 w
h 23 4 w
t 10 5 n
r 26 16 n
t 28 11 w
r 17 17 n
r 10 19 n
391 44

2 44
5
h 1 9 s
t 0 25 s
h 1 31 e
h 0 26 w
r 0 3 w
57 21

34 3
4
f 19 0 s
r 26 1 s
f 10 0 s
r 15 1 w
469 60

44 46
12
h 24 19 s
t 8 44 s
r 41 0 w
f 19 24 s
t 43 8 e
t 14 7 e
r 22 43 n
f 21 28 e
f 27 24 w
t 43 6 n
t 23 3 n
r 10 11 s
178 46

31 23
13
h 18 9 n
h 27 8 n
r 1 14 w
f 4 18 e
r 20 2 e
f 1 14 e
h 25 7 e
r 4 0 s
r 11 2 w
r 30 12 n
t 21 2 w
h 29 19 n
r 28 18 w
498 14

47 37
2
r 36 2 w
f 45 32 n
420 63

10 46
3
h 4 7 e
f 9 20 w
f 3 37 s
390 83

12 44
15
r 0 15 w
r 4 25 n
h 7 29 w
t 4 13 e
t 9 21 n
t 0 30 n
r 10 42 n
f 1 27 w
r 10 40 w
h 8 17 w
t 9 1 w
h 9 5 e
f 4 0 n
t 11 22 n
h 4 29 e
12 3

39 42
4
r 19 28 s
t 26 1 s
t 35 35 e
r 14 41 w
373 55

31 15
4
f 6 10 e
t 12 10 e
t 20 7 e
h 12 9 w
164 22

43 25
14
t 23 4 e
f 6 22 e
f 1 4 w
r 21 13 s
h 12 3 w
f 21 13 w
f 7 20 e
r 10 3 s
r 40 7 s
t 21 17 n
f 16 0 e
f 31 9 s
r 40 14 w
t 36 15 n
377 67

9 22
4
f 6 18 w
h 5 21 s
t 6 14 n
h 7 20 s
277 91

4 49
3
h 0 27 e
t 2 18 s
r 3 5 w
21 10
