*** Darwin 4x4 ***
Turn = 0.
  0123
0 ..f.
1 rh.r
2 rf.h
3 .rf.

*** Darwin 9x9 ***
Turn = 0.
  012345678
0 f.ffh.h..
1 ........h
2 f.h.....t
3 r....th..
4 .........
5 .......t.
6 ...h.t...
7 t....t...
8 .....f...

*** Darwin 7x4 ***
Turn = 0.
  0123
0 ....
1 ....
2 ....
3 .rt.
4 ....
5 ....
6 ..h.

Turn = 5.
  0123
0 ....
1 ....
2 ....
3 ..t.
4 ..t.
5 ....
6 r...

*** Darwin 10x2 ***
Turn = 0.
  01
0 ..
1 ..
2 r.
3 r.
4 t.
5 .h
6 f.
7 ..
8 f.
9 .f

*** Darwin 9x4 ***
Turn = 0.
  0123
0 ...h
1 .rf.
2 f.th
3 ....
4 ....
5 h..h
6 ..r.
7 ..r.
8 .fff

Turn = 8.
  0123
0 ....
1 ..tt
2 f.tt
3 ..t.
4 ....
5 r...
6 ..r.
7 .r.h
8 r.ff

*** Darwin 4x1 ***
Turn = 0.
  0
0 t
1 r
2 t
3 f

*** Darwin 10x8 ***
Turn = 0.
  01234567
0 ........
1 .....h..
2 ...r....
3 ........
4 t.......
5 ........
6 .......r
7 ........
8 ........
9 ........

*** Darwin 8x8 ***
Turn = 0.
  01234567
0 .f.h.t..
1 h.....r.
2 ......r.
3 ........
4 r.......
5 ...t....
6 f....h..
7 ........

Turn = 5.
  01234567
0 .fh..tt.
1 r.......
2 r.......
3 ........
4 ........
5 ...t...r
6 f..t....
7 ........

Turn = 10.
  01234567
0 r....tt.
1 .r......
2 .....r..
3 .r......
4 ........
5 ...t....
6 f..t....
7 .......r

*** Darwin 4x7 ***
Turn = 0.
  0123456
0 .......
1 .......
2 ..f....
3 .......

Turn = 6.
  0123456
0 .......
1 .......
2 ..f....
3 .......

*** Darwin 7x4 ***
Turn = 0.
  0123
0 .r.t
1 ...f
2 .tr.
3 ....
4 .r.r
5 ..rh
6 t..f

*** Darwin 7x3 ***
Turn = 0.
  012
0 htt
1 ..h
2 ft.
3 .tr
4 h..
5 ft.
6 t..

*** Darwin 5x8 ***
Turn = 0.
  01234567
0 ....f...
1 ..r.....
2 ........
3 ....r...
4 t.......

*** Darwin 3x3 ***
Turn = 0.
  012
0 ...
1 thf
2 fff

*** Darwin 9x9 ***
Turn = 0.
  012345678
0 .........
1 .......t.
2 ...f.....
3 .f.......
4 .......h.
5 .f.r..t..
6 .tt......
7 t........
8 .........

Turn = 5.
  012345678
0 .........
1 ...r...t.
2 .r.......
3 .f.......
4 .........
5 .t....t..
6 .tt......
7 t........
8 .......h.

*** Darwin 3x6 ***
Turn = 0.
  012345
0 .r.r.h
1 .f...r
2 t.....

Turn = 7.
  012345
0 r.....
1 t.....
2 tt..rr
