*** Darwin 5x4 ***
Turn = 0.
  0123
0 .r..
1 ....
2 h...
3 tt..
4 ..h.

*** Darwin 8x13 ***
Turn = 0.
  0123456789012
0 .............
1 ............r
2 ............r
3 .....f.......
4 .............
5 t............
6 ......r..r...
7 ...r.........

*** Darwin 11x14 ***
Turn = 0.
  01234567890123
0 ......r.......
1 ..............
2 ............t.
3 ..............
4 ..............
5 ..............
6 ......r.......
7 ....h.........
8 ..............
9 ..............
0 ...t.f...r....

Turn = 4.
  01234567890123
0 ..............
1 ..............
2 ............t.
3 ..............
4 ......r.......
5 ..............
6 .........rr...
7 ..............
8 ..............
9 ..............
0 ...thf........

*** Darwin 10x2 ***
Turn = 0.
  01
0 ..
1 ..
2 h.
3 ..
4 ..
5 ..
6 ..
7 ..
8 ..
9 ..

*** Darwin 4x20 ***
Turn = 0.
  01234567890123456789
0 t....h....t.....t..f
1 .........fh.........
2 ................f..h
3 .......f......h.....

*** Darwin 1x4 ***
Turn = 0.
  0123
0 ..fh

*** Darwin 18x17 ***
Turn = 0.
  01234567890123456
0 .................
1 .................
2 .................
3 .............rr.f
4 .................
5 .................
6 .................
7 .................
8 ...h.........t...
9 ..........t......
0 .................
1 ..........h.....f
2 .................
3 .................
4 .................
5 .................
6 .................
7 .................

*** Darwin 5x4 ***
Turn = 0.
  0123
0 ...f
1 .t.h
2 ....
3 ..f.
4 ...t

*** Darwin 18x1 ***
Turn = 0.
  0
0 .
1 .
2 .
3 .
4 h
5 .
6 r
7 t
8 h
9 f
0 .
1 t
2 h
3 .
4 .
5 t
6 .
7 .

*** Darwin 1x12 ***
Turn = 0.
  012345678901
0 tf.h.h.t.rfr

*** Darwin 3x19 ***
Turn = 0.
  0123456789012345678
0 .............r.....
1 ..........h........
2 ..t......h...f.....

*** Darwin 2x2 ***
Turn = 0.
  01
0 hr
1 tf

*** Darwin 16x19 ***
Turn = 0.
  0123456789012345678
0 ...................
1 ...................
2 ......h............
3 t..................
4 .............r.....
5 ...................
6 ...................
7 ......h............
8 .....f.............
9 ...................
0 ...................
1 ...................
2 ...................
3 ...................
4 ...................
5 ...................

*** Darwin 8x15 ***
Turn = 0.
  012345678901234
0 ...............
1 ...............
2 ..h.......f....
3 ...h.......f...
4 ..h.....t......
5 ...............
6 ...h..h........
7 ............r..

*** Darwin 8x13 ***
Turn = 0.
  0123456789012
0 ..r.f....t...
1 .............
2 ...r.........
3 .......r.....
4 .........h...
5 .............
6 f............
7 .............

*** Darwin 3x3 ***
Turn = 0.
  012
0 frh
1 ..t
2 ..t

*** Darwin 19x16 ***
Turn = 0.
  0123456789012345
0 ................
1 ...h.........f..
2 ................
3 ................
4 ................
5 ................
6 ................
7 ................
8 ................
9 ................
0 ................
1 ................
2 .h.......t......
3 ...........h....
4 ................
5 ................
6 ................
7 ............f...
8 ................

*** Darwin 11x9 ***
Turn = 0.
  012345678
0 .....h...
1 .........
2 .r.r.f...
3 .........
4 ......h..
5 .........
6 ..h...h.t
7 ....h..t.
8 .f....t..
9 .........
0 .rh......

*** Darwin 9x19 ***
Turn = 0.
  0123456789012345678
0 ...ht..............
1 ........h..........
2 ...................
3 ...r....h..........
4 ...................
5 ...................
6 ...................
7 r..................
8 ........h..r.......

*** Darwin 12x5 ***
Turn = 0.
  01234
0 .t...
1 .....
2 ...r.
3 ..f.t
4 ...h.
5 .....
6 .r...
7 .....
8 ....t
9 .....
0 .h...
1 .....

*** Darwin 16x2 ***
Turn = 0.
  01
0 ..
1 ..
2 tr
3 ..
4 t.
5 r.
6 ..
7 ..
8 ..
9 ..
0 .t
1 hf
2 ..
3 .h
4 ..
5 .h
