21

5 4
8
h 4 2 e
h 3 0 n
h 2 0 w
h 4 2 s
h 3 1 s
r 0 1 n
t 3 1 s
t 3 0 e
3 4

8 13
7
r 6 9 w
r 6 6 s
r 7 3 e
r 1 12 e
t 5 0 e
f 3 5 e
r 2 12 n
2 11

11 14
7
r 6 6 e
t 10 3 e
r 10 9 n
r 0 6 s
t 2 12 w
f 10 5 w
h 7 4 s
4 4

10 2
1
h 2 0 e
5 24

4 20
11
f 1 9 w
t 0 0 w
h 3 14 e
f 0 19 w
h 2 19 n
f 2 16 e
f 3 7 e
t 0 16 w
h 1 10 e
h 0 5 e
t 0 10 w
5 42

1 4
8
r 0 2 s
f 0 2 n
r 0 3 s
h 0 3 w
h 0 3 n
r 0 3 w
f 0 3 w
h 0 3 w
5 18

18 17
8
h 8 3 w
r 3 14 w
t 8 13 w
f 11 16 s
t 9 10 e
r 3 13 w
f 3 16 w
h 11 10 w
3 36

5 4
7
f 1 1 e
t 1 3 e
t 1 1 w
t 4 3 s
f 3 2 s
h 1 3 e
f 0 3 s
7 12

18 1
12
t 15 0 e
t 7 0 s
r 12 0 s
t 9 0 s
h 12 0 e
t 9 0 w
t 11 0 n
h 8 0 s
h 4 0 e
r 6 0 s
f 9 0 n
h 4 0 n
1 23

1 12
10
r 0 9 e
h 0 5 n
t 0 11 s
h 0 3 n
t 0 7 n
r 0 0 n
t 0 0 s
f 0 10 n
r 0 11 e
f 0 1 e
7 10

3 19
6
f 2 13 e
h 1 10 w
h 2 9 n
t 2 2 e
f 2 13 w
r 0 13 e
5 44

2 2
8
f 0 1 s
h 0 0 w
f 0 1 n
h 1 1 e
f 1 1 w
t 1 0 w
r 0 1 w
t 1 0 s
2 21

16 19
5
r 4 13 e
h 7 6 w
t 3 0 s
f 8 5 s
h 2 6 e
7 41

8 15
9
h 4 2 w
r 7 12 n
f 3 11 s
h 3 3 w
t 4 8 n
f 2 10 n
h 6 6 w
h 2 2 n
h 6 3 e
7 11

8 13
7
f 0 4 e
h 4 9 n
t 0 9 w
f 6 0 w
r 3 7 w
r 2 3 w
r 0 2 s
5 19

3 3
6
t 2 2 e
f 0 2 s
f 0 0 e
r 0 1 w
t 1 2 n
h 0 2 s
7 35

19 16
6
h 1 3 e
h 12 1 n
h 13 11 w
f 17 12 w
t 12 9 n
f 1 13 e
2 4

11 9
15
h 10 1 e
f 8 1 e
t 8 6 e
f 2 5 w
h 0 5 n
h 6 6 w
r 10 1 e
h 10 2 n
h 6 2 n
r 2 1 w
r 2 3 e
h 4 6 s
t 7 7 w
h 7 4 s
t 6 8 w
3 25

9 19
9
t 0 4 n
r 3 3 w
t 7 0 w
h 0 3 e
h 1 8 e
h 3 8 w
r 7 0 s
r 8 11 n
h 8 8 e
7 16

12 5
8
r 6 1 e
h 10 1 n
t 0 1 w
f 3 2 n
h 4 3 e
t 3 4 n
t 8 4 e
r 2 3 w
7 19

16 2
10
r 2 1 n
t 2 0 n
r 5 0 w
t 4 0 w
h 13 1 n
h 11 0 w
f 11 1 e
h 11 0 n
h 15 1 e
t 10 1 e
4 28
