*** Darwin 11x8 ***
Turn = 0.
  01234567
0 ........
1 .r......
2 ...r....
3 ........
4 ........
5 ..r....h
6 .....h..
7 .....h..
8 .....f..
9 ........
0 ........

Turn = 1.
  01234567
0 ........
1 ..rr....
2 ........
3 ........
4 ........
5 .r......
6 ....h..h
7 ....h...
8 .....f..
9 ........
0 ........

Turn = 2.
  01234567
0 ...r....
1 ..r.....
2 ........
3 ........
4 ........
5 r.......
6 ...h....
7 ...h...h
8 .....f..
9 ........
0 ........

Turn = 3.
  01234567
0 ...r....
1 ........
2 ..r.....
3 ........
4 ........
5 r.......
6 ..h.....
7 ..h.....
8 .....f.h
9 ........
0 ........

Turn = 4.
  01234567
0 ..r.....
1 ........
2 ........
3 ..r.....
4 r.......
5 ........
6 .h......
7 .h......
8 .....f..
9 .......h
0 ........

Turn = 5.
  01234567
0 .r......
1 ........
2 ........
3 r.......
4 ..r.....
5 ........
6 h.......
7 h.......
8 .....f..
9 ........
0 .......h

Turn = 6.
  01234567
0 r.......
1 ........
2 r.......
3 ........
4 ........
5 ..r.....
6 h.......
7 h.......
8 .....f..
9 ........
0 .......h

*** Darwin 21x17 ***
Turn = 0.
  01234567890123456
0 .................
1 ............f....
2 .................
3 .................
4 .................
5 .................
6 f................
7 .................
8 .................
9 .................
0 .................
1 .................
2 t................
3 ..h..............
4 .f...............
5 .................
6 .........t.......
7 ..............t..
8 .................
9 .................
0 .t...............

Turn = 5.
  01234567890123456
0 .................
1 ............f....
2 .................
3 .................
4 .................
5 .................
6 f................
7 .................
8 ..h..............
9 .................
0 .................
1 .................
2 t................
3 .................
4 .f...............
5 .................
6 .........t.......
7 ..............t..
8 .................
9 .................
0 .t...............

Turn = 10.
  01234567890123456
0 .................
1 ............f....
2 .................
3 ..h..............
4 .................
5 .................
6 f................
7 .................
8 .................
9 .................
0 .................
1 .................
2 t................
3 .................
4 .f...............
5 .................
6 .........t.......
7 ..............t..
8 .................
9 .................
0 .t...............

Turn = 15.
  01234567890123456
0 ..h..............
1 ............f....
2 .................
3 .................
4 .................
5 .................
6 f................
7 .................
8 .................
9 .................
0 .................
1 .................
2 t................
3 .................
4 .f...............
5 .................
6 .........t.......
7 ..............t..
8 .................
9 .................
0 .t...............

Turn = 20.
  01234567890123456
0 ..h..............
1 ............f....
2 .................
3 .................
4 .................
5 .................
6 f................
7 .................
8 .................
9 .................
0 .................
1 .................
2 t................
3 .................
4 .f...............
5 .................
6 .........t.......
7 ..............t..
8 .................
9 .................
0 .t...............

*** Darwin 6x5 ***
Turn = 0.
  01234
0 hf...
1 ....t
2 ..h..
3 .....
4 .....
5 .....

Turn = 2.
  01234
0 hf...
1 ....t
2 h....
3 .....
4 .....
5 .....

Turn = 4.
  01234
0 hf...
1 ....t
2 h....
3 .....
4 .....
5 .....

Turn = 6.
  01234
0 hf...
1 ....t
2 h....
3 .....
4 .....
5 .....

Turn = 8.
  01234
0 hf...
1 ....t
2 h....
3 .....
4 .....
5 .....

*** Darwin 6x5 ***
Turn = 0.
  01234
0 tt.fh
1 ....h
2 .t...
3 .r...
4 .t.h.
5 .....

Turn = 3.
  01234
0 tt.fh
1 ....h
2 .t...
3 ....r
4 .t..h
5 .....

Turn = 6.
  01234
0 tt.fh
1 ....h
2 .t...
3 ....r
4 .t..r
5 .....

*** Darwin 21x24 ***
Turn = 0.
  012345678901234567890123
0 ........................
1 ........................
2 ........................
3 ........................
4 ........................
5 ........................
6 ........................
7 ........................
8 ........................
9 .....................h..
0 ........................
1 ........................
2 ..................r.....
3 ........................
4 ........................
5 ........................
6 ..............fr........
7 t.......................
8 ........................
9 ....................t...
0 ........................

Turn = 1.
  012345678901234567890123
0 ........................
1 ........................
2 ........................
3 ........................
4 ........................
5 ........................
6 ........................
7 ........................
8 ........................
9 ....................h...
0 ........................
1 ........................
2 .................r......
3 ........................
4 ........................
5 ........................
6 ..............f.........
7 t..............r........
8 ........................
9 ....................t...
0 ........................

Turn = 2.
  012345678901234567890123
0 ........................
1 ........................
2 ........................
3 ........................
4 ........................
5 ........................
6 ........................
7 ........................
8 ........................
9 ...................h....
0 ........................
1 ........................
2 ................r.......
3 ........................
4 ........................
5 ........................
6 ..............f.........
7 t.......................
8 ...............r........
9 ....................t...
0 ........................

Turn = 3.
  012345678901234567890123
0 ........................
1 ........................
2 ........................
3 ........................
4 ........................
5 ........................
6 ........................
7 ........................
8 ........................
9 ..................h.....
0 ........................
1 ........................
2 ...............r........
3 ........................
4 ........................
5 ........................
6 ..............f.........
7 t.......................
8 ........................
9 ...............r....t...
0 ........................

Turn = 4.
  012345678901234567890123
0 ........................
1 ........................
2 ........................
3 ........................
4 ........................
5 ........................
6 ........................
7 ........................
8 ........................
9 .................h......
0 ........................
1 ........................
2 ..............r.........
3 ........................
4 ........................
5 ........................
6 ..............f.........
7 t.......................
8 ........................
9 ....................t...
0 ...............r........

Turn = 5.
  012345678901234567890123
0 ........................
1 ........................
2 ........................
3 ........................
4 ........................
5 ........................
6 ........................
7 ........................
8 ........................
9 ................h.......
0 ........................
1 ........................
2 .............r..........
3 ........................
4 ........................
5 ........................
6 ..............f.........
7 t.......................
8 ........................
9 ....................t...
0 ...............r........

Turn = 6.
  012345678901234567890123
0 ........................
1 ........................
2 ........................
3 ........................
4 ........................
5 ........................
6 ........................
7 ........................
8 ........................
9 ...............h........
0 ........................
1 ........................
2 ............r...........
3 ........................
4 ........................
5 ........................
6 ..............f.........
7 t.......................
8 ........................
9 ....................t...
0 ..............r.........

Turn = 7.
  012345678901234567890123
0 ........................
1 ........................
2 ........................
3 ........................
4 ........................
5 ........................
6 ........................
7 ........................
8 ........................
9 ..............h.........
0 ........................
1 ........................
2 ...........r............
3 ........................
4 ........................
5 ........................
6 ..............f.........
7 t.......................
8 ........................
9 ....................t...
0 .............r..........

Turn = 8.
  012345678901234567890123
0 ........................
1 ........................
2 ........................
3 ........................
4 ........................
5 ........................
6 ........................
7 ........................
8 ........................
9 .............h..........
0 ........................
1 ........................
2 ..........r.............
3 ........................
4 ........................
5 ........................
6 ..............f.........
7 t.......................
8 ........................
9 ....................t...
0 ............r...........

Turn = 9.
  012345678901234567890123
0 ........................
1 ........................
2 ........................
3 ........................
4 ........................
5 ........................
6 ........................
7 ........................
8 ........................
9 ............h...........
0 ........................
1 ........................
2 .........r..............
3 ........................
4 ........................
5 ........................
6 ..............f.........
7 t.......................
8 ........................
9 ....................t...
0 ...........r............

Turn = 10.
  012345678901234567890123
0 ........................
1 ........................
2 ........................
3 ........................
4 ........................
5 ........................
6 ........................
7 ........................
8 ........................
9 ...........h............
0 ........................
1 ........................
2 ........r...............
3 ........................
4 ........................
5 ........................
6 ..............f.........
7 t.......................
8 ........................
9 ....................t...
0 ..........r.............

Turn = 11.
  012345678901234567890123
0 ........................
1 ........................
2 ........................
3 ........................
4 ........................
5 ........................
6 ........................
7 ........................
8 ........................
9 ..........h.............
0 ........................
1 ........................
2 .......r................
3 ........................
4 ........................
5 ........................
6 ..............f.........
7 t.......................
8 ........................
9 ....................t...
0 .........r..............

Turn = 12.
  012345678901234567890123
0 ........................
1 ........................
2 ........................
3 ........................
4 ........................
5 ........................
6 ........................
7 ........................
8 ........................
9 .........h..............
0 ........................
1 ........................
2 ......r.................
3 ........................
4 ........................
5 ........................
6 ..............f.........
7 t.......................
8 ........................
9 ....................t...
0 ........r...............

Turn = 13.
  012345678901234567890123
0 ........................
1 ........................
2 ........................
3 ........................
4 ........................
5 ........................
6 ........................
7 ........................
8 ........................
9 ........h...............
0 ........................
1 ........................
2 .....r..................
3 ........................
4 ........................
5 ........................
6 ..............f.........
7 t.......................
8 ........................
9 ....................t...
0 .......r................

Turn = 14.
  012345678901234567890123
0 ........................
1 ........................
2 ........................
3 ........................
4 ........................
5 ........................
6 ........................
7 ........................
8 ........................
9 .......h................
0 ........................
1 ........................
2 ....r...................
3 ........................
4 ........................
5 ........................
6 ..............f.........
7 t.......................
8 ........................
9 ....................t...
0 ......r.................

*** Darwin 16x17 ***
Turn = 0.
  01234567890123456
0 .................
1 .................
2 ..tt.......h.....
3 .r...............
4 .................
5 ...t..f.......h..
6 ........h........
7 .................
8 .................
9 .................
0 .................
1 .................
2 ...........r.....
3 ...........f.....
4 .r...............
5 .................

Turn = 1.
  01234567890123456
0 .................
1 .................
2 ..tt.............
3 ...........h.....
4 .r............h..
5 ...t..f..........
6 .................
7 ........h........
8 .................
9 .................
0 .................
1 .................
2 ...........r.....
3 ...........r.....
4 ..r..............
5 .................

Turn = 2.
  01234567890123456
0 .................
1 .................
2 ..tt.............
3 ..............h..
4 ...........h.....
5 .r.t..f..........
6 .................
7 .................
8 ........h........
9 .................
0 .................
1 .................
2 ...........r.....
3 ............r....
4 ...r.............
5 .................

Turn = 3.
  01234567890123456
0 .................
1 .................
2 ..tt..........h..
3 .................
4 .................
5 ...t..f....h.....
6 .r...............
7 .................
8 .................
9 ........h........
0 .................
1 .................
2 ............r....
3 .............r...
4 ....r............
5 .................

Turn = 4.
  01234567890123456
0 .................
1 ..............h..
2 ..tt.............
3 .................
4 .................
5 ...t..f..........
6 ...........h.....
7 .r...............
8 .................
9 .................
0 ........h........
1 .................
2 .............r...
3 ..............r..
4 .....r...........
5 .................

Turn = 5.
  01234567890123456
0 ..............h..
1 .................
2 ..tt.............
3 .................
4 .................
5 ...t..f..........
6 .................
7 ...........h.....
8 .r...............
9 .................
0 .................
1 ........h........
2 ..............r..
3 ...............r.
4 ......r..........
5 .................

Turn = 6.
  01234567890123456
0 ..............h..
1 .................
2 ..tt.............
3 .................
4 .................
5 ...t..f..........
6 .................
7 .................
8 ...........h.....
9 .r...............
0 .................
1 .................
2 ........h......r.
3 ................r
4 .......r.........
5 .................

*** Darwin 3x24 ***
Turn = 0.
  012345678901234567890123
0 .........r.r....f.f...h.
1 .....t...r....f.....h...
2 .............f....rr....

Turn = 3.
  012345678901234567890123
0 ......r.r.......f.fr..h.
1 .....tr.......f.........
2 .............f..r...h...

Turn = 6.
  012345678901234567890123
0 ...r.rr.........f..r..h.
1 ..............f...r.....
2 .....r.......rr.....h...

Turn = 9.
  012345678901234567890123
0 r.r.r...........rr....h.
1 ..............f.........
2 ...r........r..r.r..h...

Turn = 12.
  012345678901234567890123
0 rr............r.......h.
1 .r............f..r......
2 r........r......r.r.h...

Turn = 15.
  012345678901234567890123
0 r..........r..........h.
1 rr............rr........
2 r.....r...........rrr...

*** Darwin 12x6 ***
Turn = 0.
  012345
0 ......
1 ......
2 ......
3 ......
4 ......
5 r.....
6 ......
7 ......
8 ......
9 ......
0 ......
1 ......

Turn = 3.
  012345
0 ......
1 ......
2 ......
3 ......
4 ......
5 ...r..
6 ......
7 ......
8 ......
9 ......
0 ......
1 ......

Turn = 6.
  012345
0 ......
1 ......
2 ......
3 ......
4 ......
5 .....r
6 ......
7 ......
8 ......
9 ......
0 ......
1 ......

Turn = 9.
  012345
0 ......
1 ......
2 ......
3 ......
4 ......
5 ......
6 ......
7 ......
8 .....r
9 ......
0 ......
1 ......

Turn = 12.
  012345
0 ......
1 ......
2 ......
3 ......
4 ......
5 ......
6 ......
7 ......
8 ......
9 ......
0 ......
1 .....r

*** Darwin 25x25 ***
Turn = 0.
  0123456789012345678901234
0 ..............f..........
1 .........................
2 .........................
3 ......................h..
4 .........................
5 .........................
6 .........................
7 .........................
8 .........................
9 .........................
0 .........................
1 .........................
2 .........................
3 .........................
4 .........................
5 .........................
6 .........................
7 .........................
8 .........................
9 .........................
0 .........................
1 .........................
2 .........................
3 .........................
4 .........................

Turn = 2.
  0123456789012345678901234
0 ..............f..........
1 ......................h..
2 .........................
3 .........................
4 .........................
5 .........................
6 .........................
7 .........................
8 .........................
9 .........................
0 .........................
1 .........................
2 .........................
3 .........................
4 .........................
5 .........................
6 .........................
7 .........................
8 .........................
9 .........................
0 .........................
1 .........................
2 .........................
3 .........................
4 .........................

Turn = 4.
  0123456789012345678901234
0 ..............f.......h..
1 .........................
2 .........................
3 .........................
4 .........................
5 .........................
6 .........................
7 .........................
8 .........................
9 .........................
0 .........................
1 .........................
2 .........................
3 .........................
4 .........................
5 .........................
6 .........................
7 .........................
8 .........................
9 .........................
0 .........................
1 .........................
2 .........................
3 .........................
4 .........................

Turn = 6.
  0123456789012345678901234
0 ..............f.......h..
1 .........................
2 .........................
3 .........................
4 .........................
5 .........................
6 .........................
7 .........................
8 .........................
9 .........................
0 .........................
1 .........................
2 .........................
3 .........................
4 .........................
5 .........................
6 .........................
7 .........................
8 .........................
9 .........................
0 .........................
1 .........................
2 .........................
3 .........................
4 .........................

*** Darwin 9x20 ***
Turn = 0.
  01234567890123456789
0 ....................
1 ....................
2 ....r.........r.....
3 ....................
4 ....................
5 ..........t........r
6 ..........t.........
7 ...............t....
8 ...t.........r......

Turn = 3.
  01234567890123456789
0 ....r.........r.....
1 ....................
2 ....................
3 ....................
4 ....................
5 ..........t..r......
6 ..........t.........
7 ...............t....
8 ...t...............r

Turn = 6.
  01234567890123456789
0 .......r...r........
1 ....................
2 .............r......
3 ....................
4 ....................
5 ..........t.........
6 ..........t.........
7 ...............t....
8 ...t.............r..

Turn = 9.
  01234567890123456789
0 .........rr..r......
1 ....................
2 ....................
3 ....................
4 ....................
5 ..........t.........
6 ..........t.........
7 ...............t....
8 ...t...........t....

Turn = 12.
  01234567890123456789
0 ...........rr.......
1 ....................
2 ....................
3 .........r..........
4 ....................
5 ..........t.........
6 ..........t.........
7 ...............t....
8 ...t...........t....

Turn = 15.
  01234567890123456789
0 ....................
1 ....................
2 ...........rr.......
3 ....................
4 ....................
5 ..........t.........
6 .........tt.........
7 ...............t....
8 ...t...........t....

*** Darwin 18x5 ***
Turn = 0.
  01234
0 .....
1 .....
2 .f...
3 .....
4 .....
5 .....
6 .....
7 ...f.
8 .....
9 .....
0 .....
1 ...f.
2 .....
3 .....
4 .....
5 .....
6 ....f
7 .....

Turn = 4.
  01234
0 .....
1 .....
2 .f...
3 .....
4 .....
5 .....
6 .....
7 ...f.
8 .....
9 .....
0 .....
1 ...f.
2 .....
3 .....
4 .....
5 .....
6 ....f
7 .....

Turn = 8.
  01234
0 .....
1 .....
2 .f...
3 .....
4 .....
5 .....
6 .....
7 ...f.
8 .....
9 .....
0 .....
1 ...f.
2 .....
3 .....
4 .....
5 .....
6 ....f
7 .....

Turn = 12.
  01234
0 .....
1 .....
2 .f...
3 .....
4 .....
5 .....
6 .....
7 ...f.
8 .....
9 .....
0 .....
1 ...f.
2 .....
3 .....
4 .....
5 .....
6 ....f
7 .....

Turn = 16.
  01234
0 .....
1 .....
2 .f...
3 .....
4 .....
5 .....
6 .....
7 ...f.
8 .....
9 .....
0 .....
1 ...f.
2 .....
3 .....
4 .....
5 .....
6 ....f
7 .....

*** Darwin 15x12 ***
Turn = 0.
  012345678901
0 ............
1 r...........
2 ............
3 ............
4 ........r.t.
5 ............
6 ............
7 ....f.......
8 ............
9 .......f....
0 ............
1 ............
2 ..r.........
3 ............
4 ............

Turn = 1.
  012345678901
0 r...........
1 ............
2 ............
3 ............
4 .......r..t.
5 ............
6 ............
7 ....f.......
8 ............
9 .......f....
0 ............
1 ............
2 .r..........
3 ............
4 ............

Turn = 2.
  012345678901
0 r...........
1 ............
2 ............
3 ............
4 ......r...t.
5 ............
6 ............
7 ....f.......
8 ............
9 .......f....
0 ............
1 ............
2 r...........
3 ............
4 ............

Turn = 3.
  012345678901
0 .r..........
1 ............
2 ............
3 ............
4 .....r....t.
5 ............
6 ............
7 ....f.......
8 ............
9 .......f....
0 ............
1 ............
2 r...........
3 ............
4 ............

*** Darwin 17x15 ***
Turn = 0.
  012345678901234
0 ...............
1 ...............
2 ....f..........
3 ......h........
4 .......h..t....
5 ...............
6 ...............
7 ...............
8 ...h..........h
9 ...............
0 ..f............
1 t..............
2 ...............
3 .r.......hr....
4 ..r............
5 ...............
6 ........r......

Turn = 2.
  012345678901234
0 ...............
1 ...............
2 ....f..........
3 ....h..........
4 ..........t....
5 ...............
6 .......h.......
7 ...............
8 .....h........h
9 ...............
0 ..f............
1 t..............
2 ...............
3 r.........h....
4 r.......r......
5 ..........r....
6 ...............

Turn = 4.
  012345678901234
0 ...............
1 ...............
2 ....f..........
3 ..h............
4 ..........t....
5 ...............
6 ...............
7 ...............
8 ......hh......h
9 ...............
0 ..f............
1 r..............
2 r.......r......
3 ............h..
4 ...............
5 r..............
6 ..........r....

Turn = 6.
  012345678901234
0 ...............
1 ...............
2 ....f..........
3 h..............
4 ..........t....
5 ...............
6 ...............
7 ...............
8 .......h......h
9 ...............
0 r.f....hr......
1 ...............
2 .r.............
3 ..............h
4 ...............
5 ...............
6 r.......r......

Turn = 8.
  012345678901234
0 ...............
1 ...............
2 ....f..........
3 h..............
4 ..........t....
5 ...............
6 ...............
7 ...............
8 r.......rh....h
9 ...............
0 ..f............
1 ...............
2 ...r...h.......
3 ..............h
4 ...............
5 ...............
6 r.....r........

Turn = 10.
  012345678901234
0 ...............
1 ...............
2 ....f..........
3 h..............
4 ..........t....
5 ...............
6 r.......r......
7 ...............
8 ...........h..h
9 ...............
0 ..f............
1 ...............
2 .....r.........
3 ..............h
4 .......h.......
5 ...............
6 ..r.r..........

Turn = 12.
  012345678901234
0 ...............
1 ...............
2 ....f..........
3 h..............
4 r.......r.t....
5 ...............
6 ...............
7 ...............
8 .............hh
9 ...............
0 ..f............
1 ...............
2 .......r.......
3 ..............h
4 ...............
5 ....r..........
6 ...r...h.......

*** Darwin 5x7 ***
Turn = 0.
  0123456
0 .......
1 .......
2 .......
3 .......
4 .....r.

Turn = 1.
  0123456
0 .......
1 .......
2 .......
3 .......
4 .....r.

Turn = 2.
  0123456
0 .......
1 .......
2 .......
3 .......
4 ....r..

Turn = 3.
  0123456
0 .......
1 .......
2 .......
3 .......
4 ...r...

Turn = 4.
  0123456
0 .......
1 .......
2 .......
3 .......
4 ..r....

Turn = 5.
  0123456
0 .......
1 .......
2 .......
3 .......
4 .r.....

*** Darwin 20x9 ***
Turn = 0.
  012345678
0 ........f
1 ....h....
2 .........
3 .........
4 ........f
5 ......t..
6 ......r..
7 .........
8 .........
9 .........
0 ....t....
1 ....t...r
2 .f.......
3 .........
4 .........
5 .........
6 ...t...h.
7 .........
8 .........
9 ...f.....

Turn = 1.
  012345678
0 ........f
1 .........
2 ....h....
3 .........
4 ........f
5 ......t..
6 .....r...
7 .........
8 .........
9 .........
0 ....t...r
1 ....t....
2 .f.......
3 .........
4 .........
5 .........
6 ...t....h
7 .........
8 .........
9 ...f.....

Turn = 2.
  012345678
0 ........f
1 .........
2 .........
3 ....h....
4 ........f
5 ......t..
6 ....r....
7 .........
8 .........
9 ........r
0 ....t....
1 ....t....
2 .f.......
3 .........
4 .........
5 .........
6 ...t....h
7 .........
8 .........
9 ...f.....

Turn = 3.
  012345678
0 ........f
1 .........
2 .........
3 .........
4 ....h...f
5 ......t..
6 ...r.....
7 .........
8 ........r
9 .........
0 ....t....
1 ....t....
2 .f.......
3 .........
4 .........
5 .........
6 ...t....h
7 .........
8 .........
9 ...f.....

Turn = 4.
  012345678
0 ........f
1 .........
2 .........
3 .........
4 ........f
5 ....h.t..
6 ..r......
7 ........r
8 .........
9 .........
0 ....t....
1 ....t....
2 .f.......
3 .........
4 .........
5 .........
6 ...t....h
7 .........
8 .........
9 ...f.....

Turn = 5.
  012345678
0 ........f
1 .........
2 .........
3 .........
4 ........f
5 ......t..
6 .r..h...r
7 .........
8 .........
9 .........
0 ....t....
1 ....t....
2 .f.......
3 .........
4 .........
5 .........
6 ...t....h
7 .........
8 .........
9 ...f.....

Turn = 6.
  012345678
0 ........f
1 .........
2 .........
3 .........
4 ........f
5 ......t.r
6 r........
7 ....h....
8 .........
9 .........
0 ....t....
1 ....t....
2 .f.......
3 .........
4 .........
5 .........
6 ...t....h
7 .........
8 .........
9 ...f.....

Turn = 7.
  012345678
0 ........f
1 .........
2 .........
3 .........
4 ........r
5 ......t.r
6 r........
7 .........
8 ....h....
9 .........
0 ....t....
1 ....t....
2 .f.......
3 .........
4 .........
5 .........
6 ...t....h
7 .........
8 .........
9 ...f.....

Turn = 8.
  012345678
0 ........f
1 .........
2 .........
3 .........
4 .......rr
5 r.....t..
6 .........
7 .........
8 .........
9 ....h....
0 ....t....
1 ....t....
2 .f.......
3 .........
4 .........
5 .........
6 ...t....h
7 .........
8 .........
9 ...f.....

Turn = 9.
  012345678
0 ........f
1 .........
2 .........
3 ........r
4 r.....t..
5 ......t..
6 .........
7 .........
8 .........
9 ....h....
0 ....t....
1 ....t....
2 .f.......
3 .........
4 .........
5 .........
6 ...t....h
7 .........
8 .........
9 ...f.....

Turn = 10.
  012345678
0 ........f
1 .........
2 ........r
3 r........
4 ......t..
5 ......t..
6 .........
7 .........
8 .........
9 ....t....
0 ....t....
1 ....t....
2 .f.......
3 .........
4 .........
5 .........
6 ...t....h
7 .........
8 .........
9 ...f.....

Turn = 11.
  012345678
0 ........f
1 ........r
2 r........
3 .........
4 ......t..
5 ......t..
6 .........
7 .........
8 .........
9 ....t....
0 ....t....
1 ....t....
2 .f.......
3 .........
4 .........
5 .........
6 ...t....h
7 .........
8 .........
9 ...f.....

Turn = 12.
  012345678
0 ........r
1 r.......r
2 .........
3 .........
4 ......t..
5 ......t..
6 .........
7 .........
8 .........
9 ....t....
0 ....t....
1 ....t....
2 .f.......
3 .........
4 .........
5 .........
6 ...t....h
7 .........
8 .........
9 ...f.....

*** Darwin 10x15 ***
Turn = 0.
  012345678901234
0 ....h..........
1 h..........t...
2 .............r.
3 .....f..h......
4 .....f.........
5 ....h..........
6 ....r......f...
7 ...............
8 ...............
9 ...........h...

Turn = 3.
  012345678901234
0 ....h..........
1 ...h.......t...
2 ..........r....
3 .....f.........
4 .....f.........
5 .h.............
6 .......rh..f...
7 ...............
8 ...............
9 ........h......

Turn = 6.
  012345678901234
0 ....h..........
1 ......h....t...
2 .......r.......
3 .....f.........
4 .....f.........
5 h..............
6 .........r.f...
7 ...............
8 ...............
9 .....h..r......

Turn = 9.
  012345678901234
0 ....h..........
1 .........h.t...
2 ....r..........
3 .....f.........
4 .....f.........
5 h..............
6 ...........r...
7 ...............
8 ...........r...
9 ..h...r........

Turn = 12.
  012345678901234
0 ....h..........
1 ..........tt...
2 .r.............
3 .....f.........
4 .....f.........
5 h..............
6 ..............r
7 ...............
8 ...............
9 h..r........r..

*** Darwin 10x22 ***
Turn = 0.
  0123456789012345678901
0 ......................
1 ......................
2 ......................
3 ...................t..
4 ......................
5 ......................
6 ..............f.......
7 ......................
8 .f....................
9 ......................

Turn = 6.
  0123456789012345678901
0 ......................
1 ......................
2 ......................
3 ...................t..
4 ......................
5 ......................
6 ..............f.......
7 ......................
8 .f....................
9 ......................

Turn = 12.
  0123456789012345678901
0 ......................
1 ......................
2 ......................
3 ...................t..
4 ......................
5 ......................
6 ..............f.......
7 ......................
8 .f....................
9 ......................

*** Darwin 9x16 ***
Turn = 0.
  0123456789012345
0 ................
1 .....t..........
2 ..........h.....
3 ................
4 ................
5 ................
6 ................
7 ..............f.
8 ................

Turn = 1.
  0123456789012345
0 ................
1 .....t..........
2 ................
3 ..........h.....
4 ................
5 ................
6 ................
7 ..............f.
8 ................

Turn = 2.
  0123456789012345
0 ................
1 .....t..........
2 ................
3 ................
4 ..........h.....
5 ................
6 ................
7 ..............f.
8 ................

Turn = 3.
  0123456789012345
0 ................
1 .....t..........
2 ................
3 ................
4 ................
5 ..........h.....
6 ................
7 ..............f.
8 ................

*** Darwin 14x10 ***
Turn = 0.
  0123456789
0 ..........
1 ..........
2 ..........
3 ..........
4 .......f..
5 ..........
6 ..........
7 ..........
8 ..........
9 ..........
0 ..........
1 ..........
2 ..........
3 ......r...

Turn = 1.
  0123456789
0 ..........
1 ..........
2 ..........
3 ..........
4 .......f..
5 ..........
6 ..........
7 ..........
8 ..........
9 ..........
0 ..........
1 ..........
2 ..........
3 ......r...

Turn = 2.
  0123456789
0 ..........
1 ..........
2 ..........
3 ..........
4 .......f..
5 ..........
6 ..........
7 ..........
8 ..........
9 ..........
0 ..........
1 ..........
2 ..........
3 .....r....

*** Darwin 8x10 ***
Turn = 0.
  0123456789
0 ..........
1 ..........
2 .........r
3 ..f.......
4 ..........
5 ..........
6 ..........
7 ..........

Turn = 1.
  0123456789
0 ..........
1 ..........
2 ..........
3 ..f......r
4 ..........
5 ..........
6 ..........
7 ..........

Turn = 2.
  0123456789
0 ..........
1 ..........
2 ..........
3 ..f.......
4 .........r
5 ..........
6 ..........
7 ..........

Turn = 3.
  0123456789
0 ..........
1 ..........
2 ..........
3 ..f.......
4 ..........
5 .........r
6 ..........
7 ..........

Turn = 4.
  0123456789
0 ..........
1 ..........
2 ..........
3 ..f.......
4 ..........
5 ..........
6 .........r
7 ..........

Turn = 5.
  0123456789
0 ..........
1 ..........
2 ..........
3 ..f.......
4 ..........
5 ..........
6 ..........
7 .........r

Turn = 6.
  0123456789
0 ..........
1 ..........
2 ..........
3 ..f.......
4 ..........
5 ..........
6 ..........
7 .........r

Turn = 7.
  0123456789
0 ..........
1 ..........
2 ..........
3 ..f.......
4 ..........
5 ..........
6 ..........
7 ........r.

Turn = 8.
  0123456789
0 ..........
1 ..........
2 ..........
3 ..f.......
4 ..........
5 ..........
6 ..........
7 .......r..

Turn = 9.
  0123456789
0 ..........
1 ..........
2 ..........
3 ..f.......
4 ..........
5 ..........
6 ..........
7 ......r...

Turn = 10.
  0123456789
0 ..........
1 ..........
2 ..........
3 ..f.......
4 ..........
5 ..........
6 ..........
7 .....r....

Turn = 11.
  0123456789
0 ..........
1 ..........
2 ..........
3 ..f.......
4 ..........
5 ..........
6 ..........
7 ....r.....

*** Darwin 8x12 ***
Turn = 0.
  012345678901
0 ............
1 ............
2 ............
3 ............
4 ............
5 ............
6 ..........t.
7 ............

Turn = 1.
  012345678901
0 ............
1 ............
2 ............
3 ............
4 ............
5 ............
6 ..........t.
7 ............

Turn = 2.
  012345678901
0 ............
1 ............
2 ............
3 ............
4 ............
5 ............
6 ..........t.
7 ............

Turn = 3.
  012345678901
0 ............
1 ............
2 ............
3 ............
4 ............
5 ............
6 ..........t.
7 ............

*** Darwin 21x7 ***
Turn = 0.
  0123456
0 .......
1 .......
2 .......
3 .......
4 .....h.
5 .......
6 .......
7 h......
8 .......
9 .......
0 .......
1 .......
2 .......
3 t......
4 .......
5 .......
6 .......
7 .......
8 .......
9 .......
0 .......

Turn = 1.
  0123456
0 .......
1 .......
2 .......
3 .......
4 ......h
5 .......
6 .......
7 h......
8 .......
9 .......
0 .......
1 .......
2 .......
3 t......
4 .......
5 .......
6 .......
7 .......
8 .......
9 .......
0 .......

Turn = 2.
  0123456
0 .......
1 .......
2 .......
3 .......
4 ......h
5 .......
6 .......
7 h......
8 .......
9 .......
0 .......
1 .......
2 .......
3 t......
4 .......
5 .......
6 .......
7 .......
8 .......
9 .......
0 .......

Turn = 3.
  0123456
0 .......
1 .......
2 .......
3 .......
4 ......h
5 .......
6 .......
7 h......
8 .......
9 .......
0 .......
1 .......
2 .......
3 t......
4 .......
5 .......
6 .......
7 .......
8 .......
9 .......
0 .......

Turn = 4.
  0123456
0 .......
1 .......
2 .......
3 .......
4 ......h
5 .......
6 .......
7 h......
8 .......
9 .......
0 .......
1 .......
2 .......
3 t......
4 .......
5 .......
6 .......
7 .......
8 .......
9 .......
0 .......

Turn = 5.
  0123456
0 .......
1 .......
2 .......
3 .......
4 ......h
5 .......
6 .......
7 h......
8 .......
9 .......
0 .......
1 .......
2 .......
3 t......
4 .......
5 .......
6 .......
7 .......
8 .......
9 .......
0 .......

Turn = 6.
  0123456
0 .......
1 .......
2 .......
3 .......
4 ......h
5 .......
6 .......
7 h......
8 .......
9 .......
0 .......
1 .......
2 .......
3 t......
4 .......
5 .......
6 .......
7 .......
8 .......
9 .......
0 .......

Turn = 7.
  0123456
0 .......
1 .......
2 .......
3 .......
4 ......h
5 .......
6 .......
7 h......
8 .......
9 .......
0 .......
1 .......
2 .......
3 t......
4 .......
5 .......
6 .......
7 .......
8 .......
9 .......
0 .......

Turn = 8.
  0123456
0 .......
1 .......
2 .......
3 .......
4 ......h
5 .......
6 .......
7 h......
8 .......
9 .......
0 .......
1 .......
2 .......
3 t......
4 .......
5 .......
6 .......
7 .......
8 .......
9 .......
0 .......

Turn = 9.
  0123456
0 .......
1 .......
2 .......
3 .......
4 ......h
5 .......
6 .......
7 h......
8 .......
9 .......
0 .......
1 .......
2 .......
3 t......
4 .......
5 .......
6 .......
7 .......
8 .......
9 .......
0 .......

Turn = 10.
  0123456
0 .......
1 .......
2 .......
3 .......
4 ......h
5 .......
6 .......
7 h......
8 .......
9 .......
0 .......
1 .......
2 .......
3 t......
4 .......
5 .......
6 .......
7 .......
8 .......
9 .......
0 .......

Turn = 11.
  0123456
0 .......
1 .......
2 .......
3 .......
4 ......h
5 .......
6 .......
7 h......
8 .......
9 .......
0 .......
1 .......
2 .......
3 t......
4 .......
5 .......
6 .......
7 .......
8 .......
9 .......
0 .......

Turn = 12.
  0123456
0 .......
1 .......
2 .......
3 .......
4 ......h
5 .......
6 .......
7 h......
8 .......
9 .......
0 .......
1 .......
2 .......
3 t......
4 .......
5 .......
6 .......
7 .......
8 .......
9 .......
0 .......

Turn = 13.
  0123456
0 .......
1 .......
2 .......
3 .......
4 ......h
5 .......
6 .......
7 h......
8 .......
9 .......
0 .......
1 .......
2 .......
3 t......
4 .......
5 .......
6 .......
7 .......
8 .......
9 .......
0 .......

Turn = 14.
  0123456
0 .......
1 .......
2 .......
3 .......
4 ......h
5 .......
6 .......
7 h......
8 .......
9 .......
0 .......
1 .......
2 .......
3 t......
4 .......
5 .......
6 .......
7 .......
8 .......
9 .......
0 .......

*** Darwin 22x15 ***
Turn = 0.
  012345678901234
0 ...............
1 .........t.....
2 ...............
3 ..............t
4 ...............
5 ...h.h.........
6 r..............
7 ...............
8 ...............
9 ...............
0 .........h.....
1 r..............
2 ...............
3 ...............
4 ...............
5 ...............
6 ...............
7 ...............
8 ...............
9 ...............
0 ...............
1 ....f..........

Turn = 2.
  012345678901234
0 ...............
1 .........t.....
2 ...............
3 ..............t
4 ...............
5 .h.....h.......
6 ..r............
7 ...............
8 ...............
9 ...............
0 .......h.......
1 ...............
2 ...............
3 r..............
4 ...............
5 ...............
6 ...............
7 ...............
8 ...............
9 ...............
0 ...............
1 ....f..........

Turn = 4.
  012345678901234
0 ...............
1 .........t.....
2 ...............
3 ..............t
4 ...............
5 h........h.....
6 ....r..........
7 ...............
8 ...............
9 ...............
0 .....h.........
1 ...............
2 ...............
3 ...............
4 ...............
5 r..............
6 ...............
7 ...............
8 ...............
9 ...............
0 ...............
1 ....f..........

Turn = 6.
  012345678901234
0 ...............
1 .........t.....
2 ...............
3 ..............t
4 ...............
5 h..........h...
6 ......r........
7 ...............
8 ...............
9 ...............
0 ...h...........
1 ...............
2 ...............
3 ...............
4 ...............
5 ...............
6 ...............
7 r..............
8 ...............
9 ...............
0 ...............
1 ....f..........

*** Darwin 15x12 ***
Turn = 0.
  012345678901
0 ............
1 ............
2 ............
3 ............
4 ............
5 ............
6 ............
7 ............
8 ............
9 ............
0 .........h..
1 ..h.........
2 h...........
3 ............
4 ....f.......

Turn = 3.
  012345678901
0 ............
1 ............
2 ............
3 ............
4 ............
5 ............
6 ............
7 ............
8 ............
9 ............
0 ............
1 h...........
2 ............
3 .........h..
4 h...f.......

Turn = 6.
  012345678901
0 ............
1 ............
2 ............
3 ............
4 ............
5 ............
6 ............
7 ............
8 ............
9 ............
0 ............
1 h...........
2 ............
3 ............
4 h...f....h..

*** Darwin 24x14 ***
Turn = 0.
  01234567890123
0 ...........h..
1 ......f.......
2 ..............
3 ..............
4 ..............
5 ..............
6 ..............
7 ..............
8 ..............
9 ..............
0 ..............
1 ..............
2 ..............
3 .............f
4 ..............
5 ............r.
6 ..............
7 ..............
8 ..............
9 ..............
0 ..............
1 ..............
2 .t............
3 ...f..........

Turn = 1.
  01234567890123
0 ..........h...
1 ......f.......
2 ..............
3 ..............
4 ..............
5 ..............
6 ..............
7 ..............
8 ..............
9 ..............
0 ..............
1 ..............
2 ..............
3 .............f
4 ..............
5 ..............
6 ............r.
7 ..............
8 ..............
9 ..............
0 ..............
1 ..............
2 .t............
3 ...f..........

Turn = 2.
  01234567890123
0 .........h....
1 ......f.......
2 ..............
3 ..............
4 ..............
5 ..............
6 ..............
7 ..............
8 ..............
9 ..............
0 ..............
1 ..............
2 ..............
3 .............f
4 ..............
5 ..............
6 ..............
7 ............r.
8 ..............
9 ..............
0 ..............
1 ..............
2 .t............
3 ...f..........

Turn = 3.
  01234567890123
0 ........h.....
1 ......f.......
2 ..............
3 ..............
4 ..............
5 ..............
6 ..............
7 ..............
8 ..............
9 ..............
0 ..............
1 ..............
2 ..............
3 .............f
4 ..............
5 ..............
6 ..............
7 ..............
8 ............r.
9 ..............
0 ..............
1 ..............
2 .t............
3 ...f..........

Turn = 4.
  01234567890123
0 .......h......
1 ......f.......
2 ..............
3 ..............
4 ..............
5 ..............
6 ..............
7 ..............
8 ..............
9 ..............
0 ..............
1 ..............
2 ..............
3 .............f
4 ..............
5 ..............
6 ..............
7 ..............
8 ..............
9 ............r.
0 ..............
1 ..............
2 .t............
3 ...f..........

Turn = 5.
  01234567890123
0 ......h.......
1 ......f.......
2 ..............
3 ..............
4 ..............
5 ..............
6 ..............
7 ..............
8 ..............
9 ..............
0 ..............
1 ..............
2 ..............
3 .............f
4 ..............
5 ..............
6 ..............
7 ..............
8 ..............
9 ..............
0 ............r.
1 ..............
2 .t............
3 ...f..........

Turn = 6.
  01234567890123
0 .....h........
1 ......f.......
2 ..............
3 ..............
4 ..............
5 ..............
6 ..............
7 ..............
8 ..............
9 ..............
0 ..............
1 ..............
2 ..............
3 .............f
4 ..............
5 ..............
6 ..............
7 ..............
8 ..............
9 ..............
0 ..............
1 ............r.
2 .t............
3 ...f..........

Turn = 7.
  01234567890123
0 ....h.........
1 ......f.......
2 ..............
3 ..............
4 ..............
5 ..............
6 ..............
7 ..............
8 ..............
9 ..............
0 ..............
1 ..............
2 ..............
3 .............f
4 ..............
5 ..............
6 ..............
7 ..............
8 ..............
9 ..............
0 ..............
1 ..............
2 .t..........r.
3 ...f..........

Turn = 8.
  01234567890123
0 ...h..........
1 ......f.......
2 ..............
3 ..............
4 ..............
5 ..............
6 ..............
7 ..............
8 ..............
9 ..............
0 ..............
1 ..............
2 ..............
3 .............f
4 ..............
5 ..............
6 ..............
7 ..............
8 ..............
9 ..............
0 ..............
1 ..............
2 .t............
3 ...f........r.

Turn = 9.
  01234567890123
0 ..h...........
1 ......f.......
2 ..............
3 ..............
4 ..............
5 ..............
6 ..............
7 ..............
8 ..............
9 ..............
0 ..............
1 ..............
2 ..............
3 .............f
4 ..............
5 ..............
6 ..............
7 ..............
8 ..............
9 ..............
0 ..............
1 ..............
2 .t............
3 ...f........r.

Turn = 10.
  01234567890123
0 .h............
1 ......f.......
2 ..............
3 ..............
4 ..............
5 ..............
6 ..............
7 ..............
8 ..............
9 ..............
0 ..............
1 ..............
2 ..............
3 .............f
4 ..............
5 ..............
6 ..............
7 ..............
8 ..............
9 ..............
0 ..............
1 ..............
2 .t............
3 ...f.......r..

Turn = 11.
  01234567890123
0 h.............
1 ......f.......
2 ..............
3 ..............
4 ..............
5 ..............
6 ..............
7 ..............
8 ..............
9 ..............
0 ..............
1 ..............
2 ..............
3 .............f
4 ..............
5 ..............
6 ..............
7 ..............
8 ..............
9 ..............
0 ..............
1 ..............
2 .t............
3 ...f......r...

Turn = 12.
  01234567890123
0 h.............
1 ......f.......
2 ..............
3 ..............
4 ..............
5 ..............
6 ..............
7 ..............
8 ..............
9 ..............
0 ..............
1 ..............
2 ..............
3 .............f
4 ..............
5 ..............
6 ..............
7 ..............
8 ..............
9 ..............
0 ..............
1 ..............
2 .t............
3 ...f.....r....

Turn = 13.
  01234567890123
0 h.............
1 ......f.......
2 ..............
3 ..............
4 ..............
5 ..............
6 ..............
7 ..............
8 ..............
9 ..............
0 ..............
1 ..............
2 ..............
3 .............f
4 ..............
5 ..............
6 ..............
7 ..............
8 ..............
9 ..............
0 ..............
1 ..............
2 .t............
3 ...f....r.....

Turn = 14.
  01234567890123
0 h.............
1 ......f.......
2 ..............
3 ..............
4 ..............
5 ..............
6 ..............
7 ..............
8 ..............
9 ..............
0 ..............
1 ..............
2 ..............
3 .............f
4 ..............
5 ..............
6 ..............
7 ..............
8 ..............
9 ..............
0 ..............
1 ..............
2 .t............
3 ...f...r......

Turn = 15.
  01234567890123
0 h.............
1 ......f.......
2 ..............
3 ..............
4 ..............
5 ..............
6 ..............
7 ..............
8 ..............
9 ..............
0 ..............
1 ..............
2 ..............
3 .............f
4 ..............
5 ..............
6 ..............
7 ..............
8 ..............
9 ..............
0 ..............
1 ..............
2 .t............
3 ...f..r.......

Turn = 16.
  01234567890123
0 h.............
1 ......f.......
2 ..............
3 ..............
4 ..............
5 ..............
6 ..............
7 ..............
8 ..............
9 ..............
0 ..............
1 ..............
2 ..............
3 .............f
4 ..............
5 ..............
6 ..............
7 ..............
8 ..............
9 ..............
0 ..............
1 ..............
2 .t............
3 ...f.r........

*** Darwin 25x25 ***
Turn = 0.
  0123456789012345678901234
0 f....f........f..........
1 .........................
2 .........................
3 .........................
4 .........................
5 .........................
6 ....h....................
7 ...t.....................
8 .........................
9 .........................
0 .........................
1 .........................
2 f...........h............
3 .........f...............
4 .........................
5 .........................
6 .........................
7 .........................
8 .........................
9 .........................
0 .........................
1 .........................
2 .........................
3 .........................
4 .......r.................

Turn = 4.
  0123456789012345678901234
0 f....f........f..........
1 .........................
2 .........................
3 .........................
4 .........................
5 .........................
6 h........................
7 ...t.....................
8 ............h............
9 .........................
0 .........................
1 .........................
2 f........................
3 .........f...............
4 .........................
5 .........................
6 .........................
7 .........................
8 .........................
9 .........................
0 .........................
1 .........................
2 .........................
3 .........................
4 ....r....................

Turn = 8.
  0123456789012345678901234
0 f....f........f..........
1 .........................
2 .........................
3 .........................
4 ............h............
5 .........................
6 h........................
7 ...t.....................
8 .........................
9 .........................
0 .........................
1 .........................
2 f........................
3 .........f...............
4 .........................
5 .........................
6 .........................
7 .........................
8 .........................
9 .........................
0 .........................
1 .........................
2 .........................
3 .........................
4 r........................

Turn = 12.
  0123456789012345678901234
0 f....f......h.f..........
1 .........................
2 .........................
3 .........................
4 .........................
5 .........................
6 h........................
7 ...t.....................
8 .........................
9 .........................
0 .........................
1 .........................
2 f........................
3 .........f...............
4 .........................
5 .........................
6 .........................
7 .........................
8 .........................
9 .........................
0 .........................
1 .........................
2 .........................
3 r........................
4 .........................

Turn = 16.
  0123456789012345678901234
0 f....f......h.f..........
1 .........................
2 .........................
3 .........................
4 .........................
5 .........................
6 h........................
7 ...t.....................
8 .........................
9 .........................
0 .........................
1 .........................
2 f........................
3 .........f...............
4 .........................
5 .........................
6 .........................
7 .........................
8 .........................
9 r........................
0 .........................
1 .........................
2 .........................
3 .........................
4 .........................

*** Darwin 9x5 ***
Turn = 0.
  01234
0 .....
1 ..h..
2 h.t..
3 ....f
4 ..r..
5 r....
6 .....
7 .....
8 .....

Turn = 3.
  01234
0 .....
1 ....h
2 hrr..
3 ....f
4 .....
5 .....
6 .....
7 .....
8 r....

Turn = 6.
  01234
0 ..r..
1 .r..h
2 .....
3 r...f
4 .....
5 .....
6 .....
7 r....
8 .....

*** Darwin 14x17 ***
Turn = 0.
  01234567890123456
0 .................
1 h...........f....
2 .................
3 .................
4 .................
5 .................
6 .................
7 .................
8 .................
9 .................
0 .................
1 .................
2 ..............r..
3 .................

Turn = 7.
  01234567890123456
0 h................
1 ............f....
2 .................
3 .................
4 .................
5 .................
6 .................
7 .................
8 .................
9 .................
0 .................
1 .................
2 .......r.........
3 .................

Turn = 14.
  01234567890123456
0 h................
1 ............f....
2 .................
3 .................
4 .................
5 .................
6 .................
7 .................
8 .................
9 .................
0 .................
1 .................
2 r................
3 .................
