22

4 16
2
r 2 2 s
t 1 5 e
18 7

10 6
1
r 6 3 n
13 3

15 13
1
h 1 5 w
11 1

5 16
13
f 2 2 e
h 2 7 n
r 1 14 e
f 4 8 w
t 3 6 e
h 0 11 n
t 2 8 e
h 2 1 w
f 2 9 e
r 3 13 e
t 0 6 n
h 1 2 w
f 1 6 w
32 2

18 18
15
f 3 8 w
h 11 0 e
r 7 17 s
t 3 14 e
r 1 7 s
r 6 0 n
t 6 0 n
f 0 5 e
f 4 12 e
h 14 2 w
h 15 10 e
h 5 9 e
r 14 17 s
t 16 12 n
r 13 0 s
21 8

20 15
6
h 17 12 e
r 17 7 n
t 9 2 n
f 15 0 s
h 4 12 e
t 16 13 n
55 4

19 13
5
r 9 9 n
h 12 0 n
t 13 0 s
f 9 7 s
h 12 1 n
2 7

13 19
15
r 8 16 n
t 9 17 n
r 4 10 e
f 5 5 s
f 2 0 w
t 1 3 n
f 4 17 e
h 11 18 e
h 1 10 s
r 5 6 e
h 1 4 n
r 3 2 w
r 8 7 s
r 10 3 s
f 7 13 e
46 3

13 7
9
h 1 4 e
h 10 6 s
t 6 6 w
t 12 0 n
t 3 0 s
h 3 6 n
t 1 2 n
r 10 1 w
h 6 3 w
5 8

7 15
3
h 4 8 n
r 3 4 w
r 3 2 s
14 5

5 10
5
h 1 2 n
f 1 8 n
t 1 9 w
h 4 6 w
t 0 8 w
29 10

20 14
12
f 1 8 s
h 11 1 n
r 2 3 s
r 0 10 n
r 5 0 w
f 4 13 n
h 13 12 e
r 2 8 n
t 5 0 w
f 8 9 w
t 19 5 n
f 3 10 s
48 9

6 16
9
h 0 6 s
f 1 0 w
h 4 8 n
t 4 5 w
h 2 1 e
f 0 14 w
t 3 8 w
f 4 2 w
f 2 6 s
38 1

4 2
15
f 1 0 n
f 1 0 s
f 1 1 e
h 3 1 n
r 3 1 e
h 1 0 e
t 3 1 s
f 1 1 w
r 2 1 w
t 2 1 n
r 3 0 n
h 2 0 w
r 2 1 s
f 3 0 w
h 0 1 e
3 4

8 6
2
h 3 0 s
r 3 2 n
39 3

16 20
11
f 15 11 e
r 0 14 e
r 2 14 s
h 15 1 n
t 1 11 e
r 3 2 w
h 9 0 n
r 2 17 s
h 15 11 w
r 9 17 s
h 7 12 s
38 5

10 8
4
f 3 7 s
f 1 7 s
f 4 3 e
f 0 4 n
28 10

14 2
2
r 2 0 n
t 13 1 n
53 1

4 3
14
h 1 2 w
r 0 1 s
t 1 1 e
r 1 2 e
t 0 2 n
h 0 1 s
h 2 2 s
h 3 2 s
r 2 2 n
r 0 2 w
f 0 0 s
t 2 0 s
h 3 1 e
f 3 2 s
37 9

11 8
5
f 0 1 s
h 5 1 e
t 10 6 w
f 3 5 s
r 0 1 w
40 7

18 10
9
f 16 0 w
h 2 1 w
f 14 6 n
f 8 8 e
h 14 6 e
f 9 7 n
t 11 1 s
t 3 8 e
t 15 8 n
2 10

13 13
12
r 11 4 s
r 12 0 w
t 12 7 w
r 8 0 n
h 11 2 w
h 1 12 e
h 12 9 s
t 12 8 s
t 11 4 n
h 10 11 s
f 11 9 w
h 5 2 e
49 5
