*** Darwin 9x9 ***
Turn = 0.
  012345678
0 .hf....fr
1 .........
2 .....h..h
3 ......rf.
4 .........
5 .........
6 ..f......
7 .f.......
8 .........

Turn = 43.
  012345678
0 rr......r
1 r.r......
2 .........
3 .........
4 .........
5 .........
6 .........
7 .f.....r.
8 ..r...rr.

*** Darwin 9x1 ***
Turn = 0.
  0
0 .
1 t
2 .
3 .
4 h
5 .
6 .
7 .
8 .

*** Darwin 20x9 ***
Turn = 0.
  012345678
0 ..t......
1 .........
2 .........
3 .........
4 .........
5 .........
6 ....f....
7 ..h......
8 .........
9 .........
0 .........
1 ....t....
2 .........
3 .........
4 .........
5 .........
6 .........
7 .........
8 .........
9 t........

*** Darwin 20x16 ***
Turn = 0.
  0123456789012345
0 ................
1 ...............f
2 ................
3 .........f...h..
4 ................
5 ................
6 .............r..
7 ................
8 ................
9 ................
0 ................
1 .............r..
2 ...........t....
3 ...........f....
4 ................
5 ..f............t
6 ................
7 ................
8 ................
9 ................

Turn = 31.
  0123456789012345
0 ..........r.....
1 ...............f
2 ................
3 .........f......
4 ................
5 ................
6 ................
7 ................
8 ................
9 ................
0 ................
1 ................
2 r..........t....
3 ...........t....
4 ................
5 ..f............t
6 ................
7 ................
8 ................
9 .............h..

Turn = 62.
  0123456789012345
0 ................
1 ................
2 ................
3 .........f......
4 ................
5 ................
6 ................
7 ................
8 ................
9 ................
0 ................
1 ................
2 ...........t....
3 .....rr.........
4 ................
5 ..f...........r.
6 ................
7 r..............r
8 ................
9 ...............r

*** Darwin 14x19 ***
Turn = 0.
  0123456789012345678
0 ...........t.f.....
1 .....f......h......
2 ...................
3 ...................
4 ...................
5 .......t...........
6 ...................
7 ...................
8 ..f................
9 ...................
0 .....r......r......
1 .........r.........
2 ...................
3 ...................

*** Darwin 15x16 ***
Turn = 0.
  0123456789012345
0 .............f..
1 ................
2 ................
3 ................
4 ......t......t..
5 ................
6 .........f......
7 .....t.t........
8 ..........h..t..
9 r...............
0 ................
1 ................
2 ................
3 ................
4 ..r.............

*** Darwin 18x9 ***
Turn = 0.
  012345678
0 .........
1 .....r..t
2 .........
3 .........
4 .........
5 .........
6 .........
7 .........
8 .........
9 .........
0 .........
1 .........
2 .........
3 .h.......
4 .........
5 .........
6 .........
7 .........

Turn = 92.
  012345678
0 ........t
1 ........t
2 .........
3 .........
4 .........
5 .........
6 .........
7 .........
8 .........
9 .........
0 .........
1 .........
2 .........
3 .........
4 .........
5 .........
6 .........
7 .h.......

*** Darwin 3x20 ***
Turn = 0.
  01234567890123456789
0 ....f........r......
1 .........t..rf..f...
2 h.r....h..t.........

Turn = 56.
  01234567890123456789
0 ......r.........rr..
1 .r.rr...............
2 rr....r.....r.......

*** Darwin 4x14 ***
Turn = 0.
  01234567890123
0 ...t..........
1 ..............
2 ..............
3 ......t.......

Turn = 9.
  01234567890123
0 ...t..........
1 ..............
2 ..............
3 ......t.......

Turn = 18.
  01234567890123
0 ...t..........
1 ..............
2 ..............
3 ......t.......

Turn = 27.
  01234567890123
0 ...t..........
1 ..............
2 ..............
3 ......t.......

Turn = 36.
  01234567890123
0 ...t..........
1 ..............
2 ..............
3 ......t.......

Turn = 45.
  01234567890123
0 ...t..........
1 ..............
2 ..............
3 ......t.......

Turn = 54.
  01234567890123
0 ...t..........
1 ..............
2 ..............
3 ......t.......

Turn = 63.
  01234567890123
0 ...t..........
1 ..............
2 ..............
3 ......t.......

*** Darwin 3x2 ***
Turn = 0.
  01
0 ht
1 tf
2 h.

*** Darwin 16x15 ***
Turn = 0.
  012345678901234
0 ...............
1 ........h......
2 ...............
3 ....t..........
4 ....h..........
5 ...............
6 ...............
7 ...............
8 ...............
9 ...............
0 ...............
1 ...............
2 ............f..
3 ...............
4 ...............
5 ...............

*** Darwin 11x17 ***
Turn = 0.
  01234567890123456
0 .................
1 .................
2 .................
3 h................
4 ...............rr
5 .................
6 .................
7 .................
8 ..............r..
9 .................
0 .................

Turn = 7.
  01234567890123456
0 ................r
1 .................
2 .................
3 .................
4 .................
5 .................
6 .................
7 .................
8 .................
9 .................
0 h..............rr

Turn = 14.
  01234567890123456
0 .................
1 .................
2 .................
3 .................
4 .................
5 .................
6 .................
7 ................r
8 .................
9 .................
0 h..........r..r..

Turn = 21.
  01234567890123456
0 .................
1 .................
2 .................
3 .................
4 .................
5 .................
6 .................
7 .................
8 ................r
9 .................
0 h...r..r.........

Turn = 28.
  01234567890123456
0 .................
1 ................r
2 .................
3 .................
4 .................
5 .................
6 .................
7 .................
8 .................
9 r................
0 r.r..............

Turn = 35.
  01234567890123456
0 ...........r.....
1 .................
2 r................
3 .................
4 r................
5 .................
6 .................
7 .................
8 .................
9 .................
0 ...r.............

Turn = 42.
  01234567890123456
0 ..r.rr...........
1 .................
2 .................
3 .................
4 .................
5 .................
6 .................
7 .................
8 .................
9 .................
0 ..........r......

Turn = 49.
  01234567890123456
0 r......r.........
1 .................
2 .................
3 .................
4 .................
5 .................
6 ....r............
7 .................
8 .................
9 .................
0 ................r

Turn = 56.
  01234567890123456
0 ......r.......r..
1 .................
2 .................
3 ................r
4 .................
5 .................
6 .................
7 .................
8 .................
9 .................
0 ......r..........

Turn = 63.
  01234567890123456
0 .............rr..
1 .................
2 .................
3 .................
4 ................r
5 .................
6 .................
7 .................
8 .................
9 .................
0 .............r...

*** Darwin 4x3 ***
Turn = 0.
  012
0 t..
1 r..
2 .tt
3 hh.

Turn = 44.
  012
0 t..
1 t..
2 .tt
3 .tt

*** Darwin 20x16 ***
Turn = 0.
  0123456789012345
0 ................
1 ................
2 ................
3 ................
4 ................
5 ..............r.
6 ................
7 ..........h.....
8 ................
9 ................
0 ................
1 ................
2 ................
3 ................
4 ................
5 ................
6 ................
7 ........f.......
8 ................
9 ................

*** Darwin 13x11 ***
Turn = 0.
  01234567890
0 ...........
1 ...t.......
2 ...........
3 ...........
4 ...........
5 ...........
6 ...........
7 ...........
8 ...........
9 ...........
0 ...........
1 ...........
2 ...........

Turn = 22.
  01234567890
0 ...........
1 ...t.......
2 ...........
3 ...........
4 ...........
5 ...........
6 ...........
7 ...........
8 ...........
9 ...........
0 ...........
1 ...........
2 ...........

*** Darwin 20x14 ***
Turn = 0.
  01234567890123
0 ..............
1 ..............
2 ..............
3 t.............
4 ......h....r..
5 ..............
6 ..............
7 ..............
8 ..............
9 .....f........
0 ..............
1 ............f.
2 ..............
3 .......h......
4 ..............
5 ..............
6 .............h
7 ..............
8 ........t.....
9 ..............

Turn = 31.
  01234567890123
0 .......h......
1 ..............
2 ..............
3 t.............
4 ..............
5 ..............
6 ..............
7 ..............
8 ..............
9 .....f........
0 ..............
1 .........r..f.
2 ........r.....
3 ..............
4 ..............
5 r.............
6 ..............
7 r.............
8 ..............
9 ..............

*** Darwin 9x13 ***
Turn = 0.
  0123456789012
0 ...f.........
1 ........f....
2 .............
3 .............
4 h......r.....
5 ..h..........
6 ......t......
7 .......r.....
8 .....f.......

Turn = 34.
  0123456789012
0 ...rr........
1 .....r..f....
2 .............
3 .............
4 .............
5 .............
6 ......t......
7 .............
8 r......r....r

*** Darwin 3x5 ***
Turn = 0.
  01234
0 ..r..
1 .....
2 .....

Turn = 59.
  01234
0 .r...
1 .....
2 .....

*** Darwin 19x5 ***
Turn = 0.
  01234
0 ..r..
1 .....
2 .....
3 .....
4 .....
5 .t...
6 .....
7 .....
8 .....
9 r.r..
0 ..t..
1 .....
2 t....
3 ....f
4 .....
5 .....
6 .....
7 .....
8 .....

*** Darwin 3x9 ***
Turn = 0.
  012345678
0 ....rt..t
1 ..tr..f.f
2 h......t.

*** Darwin 5x5 ***
Turn = 0.
  01234
0 ..ht.
1 .....
2 .....
3 .....
4 .....

*** Darwin 2x6 ***
Turn = 0.
  012345
0 .....f
1 ......

Turn = 65.
  012345
0 .....f
1 ......

*** Darwin 11x14 ***
Turn = 0.
  01234567890123
0 ..............
1 ..........r...
2 ..............
3 .............f
4 ..............
5 ..............
6 ......r.......
7 .............t
8 ...f..........
9 ..............
0 ............tf

*** Darwin 12x19 ***
Turn = 0.
  0123456789012345678
0 ...................
1 .......r...........
2 ...................
3 ...................
4 ...........f..t....
5 ....f..............
6 ...r...............
7 ...................
8 ...................
9 ...................
0 ......f............
1 ..............f....

Turn = 83.
  0123456789012345678
0 r...........r......
1 ..................r
2 ...................
3 ...................
4 ...........f.....r.
5 ...................
6 ...................
7 ...................
8 ...................
9 ...................
0 ......f............
1 ...........r.......

*** Darwin 6x13 ***
Turn = 0.
  0123456789012
0 h..........f.
1 ....r......h.
2 .............
3 ..t.f...ft...
4 ......h......
5 .....r.......

*** Darwin 15x4 ***
Turn = 0.
  0123
0 ....
1 ....
2 ....
3 ....
4 ....
5 ....
6 ....
7 ...t
8 ....
9 ....
0 ....
1 ....
2 ....
3 ....
4 ....

*** Darwin 5x14 ***
Turn = 0.
  01234567890123
0 ...fr.........
1 ..............
2 .....f....f...
3 ..............
4 ..............

*** Darwin 20x10 ***
Turn = 0.
  0123456789
0 .........f
1 ..........
2 ..........
3 ..........
4 ..........
5 ..........
6 ..r.......
7 ..........
8 .....r....
9 ..........
0 ..........
1 ..........
2 ..........
3 ..........
4 ..........
5 ..........
6 ..........
7 .........t
8 .......h..
9 ..........

*** Darwin 2x6 ***
Turn = 0.
  012345
0 f..f.h
1 ....ff

Turn = 23.
  012345
0 f..f.h
1 ....ff

Turn = 46.
  012345
0 f..f.h
1 ....ff
