*** Darwin 11x6 ***
Turn = 0.
  012345
0 ......
1 h...rf
2 ..t...
3 ......
4 ..rh..
5 .t...r
6 .f....
7 .f....
8 ..h...
9 .r..ht
0 ......

Turn = 7.
  012345
0 ...r.r
1 h.....
2 ..t...
3 ......
4 .t....
5 rt....
6 .t..r.
7 ......
8 ....rt
9 .....t
0 ...rh.

Turn = 14.
  012345
0 r.r...
1 ......
2 ..t...
3 r..r.r
4 .t...r
5 .t....
6 .t....
7 r....r
8 ....r.
9 ..r...
0 ......

*** Darwin 4x8 ***
Turn = 0.
  01234567
0 ..rrt..f
1 .hh...f.
2 .hrf....
3 f.......

Turn = 12.
  01234567
0 rr.r.r.f
1 ...r..fr
2 ........
3 rr....r.

*** Darwin 6x7 ***
Turn = 0.
  0123456
0 ....tr.
1 .......
2 .......
3 f......
4 ....r..
5 r......

Turn = 16.
  0123456
0 ...tttr
1 ......r
2 .......
3 .......
4 .......
5 .......

*** Darwin 2x7 ***
Turn = 0.
  0123456
0 .f.t.r.
1 rrf.t..

Turn = 7.
  0123456
0 rr.....
1 .rrtrr.

Turn = 14.
  0123456
0 ..r...r
1 .rrrrr.

*** Darwin 3x3 ***
Turn = 0.
  012
0 t.h
1 ..r
2 ...

Turn = 4.
  012
0 t.h
1 ...
2 ..r

*** Darwin 2x9 ***
Turn = 0.
  012345678
0 ..fff..tr
1 r.h...tt.

Turn = 5.
  012345678
0 r.fff..tt
1 h.....tt.

Turn = 10.
  012345678
0 r..ff..tt
1 hr....tt.

*** Darwin 8x7 ***
Turn = 0.
  0123456
0 .......
1 .....r.
2 ......t
3 .r...f.
4 ..r..t.
5 .t.....
6 .tfh..h
7 .......

Turn = 6.
  0123456
0 .r.....
1 .......
2 ......t
3 r.....t
4 ....r..
5 r...rr.
6 ....r..
7 .r...r.

Turn = 12.
  0123456
0 rr..r..
1 .......
2 ......t
3 ......r
4 .....rr
5 r......
6 ..r..rr
7 .......

*** Darwin 7x2 ***
Turn = 0.
  01
0 ..
1 .t
2 t.
3 ..
4 ..
5 ..
6 f.

Turn = 19.
  01
0 ..
1 .t
2 t.
3 ..
4 ..
5 ..
6 f.

*** Darwin 4x7 ***
Turn = 0.
  0123456
0 h......
1 .....h.
2 .r.....
3 h.....t

Turn = 7.
  0123456
0 ......h
1 .......
2 ......r
3 h....tr

Turn = 14.
  0123456
0 ......h
1 .......
2 r......
3 h....tt

*** Darwin 7x11 ***
Turn = 0.
  01234567890
0 .r....h....
1 .r.h.r.h.rh
2 ..r....f.t.
3 f..r.t....r
4 ..fr.fht...
5 .h..r.h..f.
6 r.t.t.r.r.t

Turn = 8.
  01234567890
0 rhr.r.....r
1 ....r.r.r..
2 ..rr.r..rrr
3 .........r.
4 ..f...ttr.r
5 r..r.rt....
6 .r.rrr.r..r

*** Darwin 7x4 ***
Turn = 0.
  0123
0 f.t.
1 tf..
2 .t..
3 h...
4 .t..
5 r...
6 hh.f

Turn = 5.
  0123
0 t.t.
1 tt..
2 .t..
3 .r..
4 r...
5 r.r.
6 h..f

Turn = 10.
  0123
0 t.t.
1 tt..
2 r...
3 r...
4 ..rr
5 ...r
6 h..r

*** Darwin 4x3 ***
Turn = 0.
  012
0 ...
1 r..
2 ...
3 ...

Turn = 2.
  012
0 ...
1 ..r
2 ...
3 ...

*** Darwin 2x5 ***
Turn = 0.
  01234
0 r....
1 .....

Turn = 1.
  01234
0 .r...
1 .....

*** Darwin 5x2 ***
Turn = 0.
  01
0 ..
1 h.
2 h.
3 h.
4 ..

Turn = 1.
  01
0 ..
1 h.
2 .h
3 h.
4 ..

*** Darwin 10x6 ***
Turn = 0.
  012345
0 ......
1 ......
2 .h....
3 ......
4 r.....
5 ...f..
6 ......
7 ......
8 ......
9 ......

Turn = 4.
  012345
0 .h....
1 ......
2 ......
3 ......
4 ......
5 ...f..
6 ......
7 ......
8 r.....
9 ......

*** Darwin 5x10 ***
Turn = 0.
  0123456789
0 .....t.f..
1 ........t.
2 ..........
3 .f.h......
4 .f........

Turn = 10.
  0123456789
0 ...h.t.f..
1 ........t.
2 ..........
3 .f........
4 .f........

*** Darwin 4x6 ***
Turn = 0.
  012345
0 ...t..
1 .r.f..
2 .t.h..
3 .rr...

Turn = 3.
  012345
0 r..t..
1 ...t..
2 .t....
3 .rrh..

Turn = 6.
  012345
0 .rrt..
1 ...t..
2 .t....
3 r..h..

*** Darwin 11x7 ***
Turn = 0.
  0123456
0 ..hh..r
1 tt...f.
2 ...h.t.
3 .h.....
4 .......
5 ft.....
6 t..rffh
7 .tf....
8 ...f.r.
9 .f.....
0 fr..ft.

Turn = 1.
  0123456
0 ..h...r
1 ttt..f.
2 .....t.
3 ...h...
4 .h.....
5 tt.....
6 t.r.ffh
7 .tf....
8 ...f..r
9 .f.....
0 fr..ft.

Turn = 2.
  0123456
0 .h....r
1 ttt..f.
2 .....t.
3 .......
4 .h.h...
5 tt.....
6 tr..ffh
7 .tf....
8 ...f..r
9 .f.....
0 f.r.tt.

Turn = 3.
  0123456
0 t......
1 ttt..fr
2 .....t.
3 .......
4 .h.....
5 tt.h...
6 tt..ffh
7 .tt....
8 ...f...
9 .f....r
0 f..rtt.

Turn = 4.
  0123456
0 t......
1 ttt..t.
2 .....tr
3 .......
4 .h.....
5 tt.....
6 tt.hffh
7 .tt....
8 ...f...
9 .f.....
0 f..rrrr

Turn = 5.
  0123456
0 t......
1 ttt..t.
2 .....t.
3 ......r
4 .h.....
5 tt.....
6 tt..ffh
7 .tth...
8 ...f...
9 .f.....
0 f..rrrr

Turn = 6.
  0123456
0 t......
1 ttt..t.
2 .....t.
3 .......
4 .t....r
5 tt.....
6 tt..ffh
7 .tth...
8 ...f...
9 .f..r..
0 f..r.rr

Turn = 7.
  0123456
0 t......
1 ttt..t.
2 .....t.
3 .......
4 .t.....
5 tt....r
6 tt..ffh
7 .ttt...
8 ...tr..
9 .f....r
0 f.r..r.

Turn = 8.
  0123456
0 t......
1 ttt..t.
2 .....t.
3 .......
4 .t.....
5 tt....r
6 tt..ffr
7 .tttr..
8 ...t..r
9 .f...r.
0 fr.....

*** Darwin 4x9 ***
Turn = 0.
  012345678
0 .t.......
1 .........
2 .........
3 .........

Turn = 2.
  012345678
0 .t.......
1 .........
2 .........
3 .........

Turn = 4.
  012345678
0 .t.......
1 .........
2 .........
3 .........

Turn = 6.
  012345678
0 .t.......
1 .........
2 .........
3 .........

Turn = 8.
  012345678
0 .t.......
1 .........
2 .........
3 .........

Turn = 10.
  012345678
0 .t.......
1 .........
2 .........
3 .........

Turn = 12.
  012345678
0 .t.......
1 .........
2 .........
3 .........

*** Darwin 2x7 ***
Turn = 0.
  0123456
0 .......
1 f...ff.

Turn = 8.
  0123456
0 .......
1 f...ff.
